set terminal postscript eps color enhanced font "Times-Roman,24"
set style rectangle front fillcolor 'web-green' fillstyle solid border linecolor 'black'
set xrange[0:55]
set yrange[0:20]
set key off

set object  1 rectangle from  0, 0  to  2, 1 lw 1 fillcolor 'white'
set label 'white' at  2.1, 0.5 font ',12'
set object  2 rectangle from  0, 1  to  2, 2 lw 1 fillcolor 'honeydew'
set label 'honeydew' at  2.1, 1.5 font ',12'
set object  3 rectangle from  0, 2  to  2, 3 lw 1 fillcolor 'seagreen'
set label 'seagreen' at  2.1, 2.5 font ',12'
set object  4 rectangle from  0, 3  to  2, 4 lw 1 fillcolor 'greenyellow'
set label 'greenyellow' at  2.1, 3.5 font ',12'
set object  5 rectangle from  0, 4  to  2, 5 lw 1 fillcolor 'chartreuse'
set label 'chartreuse' at  2.1, 4.5 font ',12'
set object  6 rectangle from  0, 5  to  2, 6 lw 1 fillcolor 'spring-green'
set label 'spring-green' at  2.1, 5.5 font ',12'
set object  7 rectangle from  0, 6  to  2, 7 lw 1 fillcolor 'green'
set label 'green' at  2.1, 6.5 font ',12'
set object  8 rectangle from  0, 7  to  2, 8 lw 1 fillcolor 'light-green'
set label 'light-green' at  2.1, 7.5 font ',12'
set object  9 rectangle from  0, 8  to  2, 9 lw 1 fillcolor 'web-green'
set label 'web-green' at  2.1, 8.5 font ',12'
set object 10 rectangle from  0, 9  to  2,10 lw 1 fillcolor 'sea-green'
set label 'sea-green' at  2.1, 9.5 font ',12'
set object 11 rectangle from  0,10  to  2,11 lw 1 fillcolor 'forest-green'
set label 'forest-green' at  2.1,10.5 font ',12'
set object 12 rectangle from  0,11  to  2,12 lw 1 fillcolor 'dark-chartreuse'
set label 'dark-chartreuse' at  2.1,11.5 font ',12'
set object 13 rectangle from  0,12  to  2,13 lw 1 fillcolor 'dark-spring-green'
set label 'dark-spring-green' at  2.1,12.5 font ',12'
set object 14 rectangle from  0,13  to  2,14 lw 1 fillcolor 'dark-olivegreen'
set label 'dark-olivegreen' at  2.1,13.5 font ',12'
set object 15 rectangle from  0,14  to  2,15 lw 1 fillcolor 'dark-green'
set label 'dark-green' at  2.1,14.5 font ',12'
set object 16 rectangle from  0,15  to  2,16 lw 1 fillcolor 'black'
set label 'black' at  2.1,15.5 font ',12'

set object 17 rectangle from  8, 0  to 10, 1 lw 1 fillcolor 'white'
set label 'white' at 10.1, 0.5 font ',12'
set object 18 rectangle from  8, 1  to 10, 2 lw 1 fillcolor 'light-cyan'
set label 'light-cyan' at 10.1, 1.5 font ',12'
set object 19 rectangle from  8, 2  to 10, 3 lw 1 fillcolor 'cyan'
set label 'cyan' at 10.1, 2.5 font ',12'
set object 20 rectangle from  8, 3  to 10, 4 lw 1 fillcolor 'dark-cyan'
set label 'dark-cyan' at 10.1, 3.5 font ',12'
set object 21 rectangle from  8, 4  to 10, 5 lw 1 fillcolor 'light-turquoise'
set label 'light-turquoise' at 10.1, 4.5 font ',12'
set object 22 rectangle from  8, 5  to 10, 6 lw 1 fillcolor 'turquoise'
set label 'turquoise' at 10.1, 5.5 font ',12'
set object 23 rectangle from  8, 6  to 10, 7 lw 1 fillcolor 'dark-turquoise'
set label 'dark-turquoise' at 10.1, 6.5 font ',12'
set object 24 rectangle from  8, 7  to 10, 8 lw 1 fillcolor 'light-blue'
set label 'light-blue' at 10.1, 7.5 font ',12'
set object 25 rectangle from  8, 8  to 10, 9 lw 1 fillcolor 'skyblue'
set label 'skyblue' at 10.1, 8.5 font ',12'
set object 26 rectangle from  8, 9  to 10,10 lw 1 fillcolor 'slateblue1'
set label 'slateblue1' at 10.1, 9.5 font ',12'
set object 27 rectangle from  8,10  to 10,11 lw 1 fillcolor 'web-blue'
set label 'web-blue' at 10.1,10.5 font ',12'
set object 28 rectangle from  8,11  to 10,12 lw 1 fillcolor 'royalblue'
set label 'royalblue' at 10.1,11.5 font ',12'
set object 29 rectangle from  8,12  to 10,13 lw 1 fillcolor 'steelblue'
set label 'steelblue' at 10.1,12.5 font ',12'
set object 30 rectangle from  8,13  to 10,14 lw 1 fillcolor 'blue'
set label 'blue' at 10.1,13.5 font ',12'
set object 31 rectangle from  8,14  to 10,15 lw 1 fillcolor 'medium-blue'
set label 'medium-blue' at 10.1,14.5 font ',12'
set object 32 rectangle from  8,15  to 10,16 lw 1 fillcolor 'navy'
set label 'navy' at 10.1,15.5 font ',12'
set object 33 rectangle from  8,16  to 10,17 lw 1 fillcolor 'dark-blue'
set label 'dark-blue' at 10.1,16.5 font ',12'
set object 34 rectangle from  8,17  to 10,18 lw 1 fillcolor 'midnight-blue'
set label 'midnight-blue' at 10.1,17.5 font ',12'
set object 35 rectangle from  8,18  to 10,19 lw 1 fillcolor 'black'
set label 'black' at 10.1,18.5 font ',12'

set object 36 rectangle from 16, 0  to 18, 1 lw 1 fillcolor 'white'
set label 'white' at 18.1, 0.5 font ',12'
set object 37 rectangle from 16, 1  to 18, 2 lw 1 fillcolor 'yellow'
set label 'yellow' at 18.1, 1.5 font ',12'
set object 38 rectangle from 16, 2  to 18, 3 lw 1 fillcolor 'dark-yellow'
set label 'dark-yellow' at 18.1, 2.5 font ',12'
set object 39 rectangle from 16, 3  to 18, 4 lw 1 fillcolor 'yellow4'
set label 'yellow4' at 18.1, 3.5 font ',12'
set object 40 rectangle from 16, 4  to 18, 5 lw 1 fillcolor 'coral'
set label 'coral' at 18.1, 4.5 font ',12'
set object 41 rectangle from 16, 5  to 18, 6 lw 1 fillcolor 'light-coral'
set label 'light-coral' at 18.1, 5.5 font ',12'
set object 42 rectangle from 16, 6  to 18, 7 lw 1 fillcolor 'orange'
set label 'orange' at 18.1, 6.5 font ',12'
set object 43 rectangle from 16, 7  to 18, 8 lw 1 fillcolor 'sandybrown'
set label 'sandybrown' at 18.1, 7.5 font ',12'
set object 44 rectangle from 16, 8  to 18, 9 lw 1 fillcolor 'orange-red'
set label 'orange-red' at 18.1, 8.5 font ',12'
set object 45 rectangle from 16, 9  to 18,10 lw 1 fillcolor 'red'
set label 'red' at 18.1, 9.5 font ',12'
set object 46 rectangle from 16,10  to 18,11 lw 1 fillcolor 'light-red'
set label 'light-red' at 18.1,10.5 font ',12'
set object 47 rectangle from 16,11  to 18,12 lw 1 fillcolor 'dark-orange'
set label 'dark-orange' at 18.1,11.5 font ',12'
set object 48 rectangle from 16,12  to 18,13 lw 1 fillcolor 'brown'
set label 'brown' at 18.1,12.5 font ',12'
set object 49 rectangle from 16,13  to 18,14 lw 1 fillcolor 'dark-red'
set label 'dark-red' at 18.1,13.5 font ',12'
set object 50 rectangle from 16,14  to 18,15 lw 1 fillcolor 'orangered4'
set label 'orangered4' at 18.1,14.5 font ',12'
set object 51 rectangle from 16,15  to 18,16 lw 1 fillcolor 'brown4'
set label 'brown4' at 18.1,15.5 font ',12'
set object 52 rectangle from 16,16  to 18,17 lw 1 fillcolor 'black'
set label 'black' at 18.1,16.5 font ',12'

set object 53 rectangle from 24, 0  to 26, 1 lw 1 fillcolor 'white'
set label 'white' at 26.1, 0.5 font ',12'
set object 54 rectangle from 24, 1  to 26, 2 lw 1 fillcolor 'light-pink'
set label 'light-pink' at 26.1, 1.5 font ',12'
set object 55 rectangle from 24, 2  to 26, 3 lw 1 fillcolor 'pink'
set label 'pink' at 26.1, 2.5 font ',12'
set object 56 rectangle from 24, 3  to 26, 4 lw 1 fillcolor 'plum'
set label 'plum' at 26.1, 3.5 font ',12'
set object 57 rectangle from 24, 4  to 26, 5 lw 1 fillcolor 'orchid'
set label 'orchid' at 26.1, 4.5 font ',12'
set object 58 rectangle from 24, 5  to 26, 6 lw 1 fillcolor 'violet'
set label 'violet' at 26.1, 5.5 font ',12'
set object 59 rectangle from 24, 6  to 26, 7 lw 1 fillcolor 'light-magenta'
set label 'light-magenta' at 26.1, 6.5 font ',12'
set object 60 rectangle from 24, 7  to 26, 8 lw 1 fillcolor 'magenta'
set label 'magenta' at 26.1, 7.5 font ',12'
set object 61 rectangle from 24, 8  to 26, 9 lw 1 fillcolor 'dark-pink'
set label 'dark-pink' at 26.1, 8.5 font ',12'
set object 62 rectangle from 24, 9  to 26,10 lw 1 fillcolor 'purple'
set label 'purple' at 26.1, 9.5 font ',12'
set object 63 rectangle from 24,10  to 26,11 lw 1 fillcolor 'dark-magenta'
set label 'dark-magenta' at 26.1,10.5 font ',12'
set object 64 rectangle from 24,11  to 26,12 lw 1 fillcolor 'mediumpurple3'
set label 'mediumpurple3' at 26.1,11.5 font ',12'
set object 65 rectangle from 24,12  to 26,13 lw 1 fillcolor 'dark-violet'
set label 'dark-violet' at 26.1,12.5 font ',12'
set object 66 rectangle from 24,13  to 26,14 lw 1 fillcolor 'orchid4'
set label 'orchid4' at 26.1,13.5 font ',12'
set object 67 rectangle from 24,14  to 26,15 lw 1 fillcolor 'dark-plum'
set label 'dark-plum' at 26.1,14.5 font ',12'
set object 68 rectangle from 24,15  to 26,16 lw 1 fillcolor 'black'
set label 'black' at 26.1,15.5 font ',12'

set object 69 rectangle from 32, 0  to 34, 1 lw 1 fillcolor 'white'
set label 'white' at 34.1, 0.5 font ',12'
set object 70 rectangle from 32, 1  to 34, 2 lw 1 fillcolor 'lemonchiffon'
set label 'lemonchiffon' at 34.1, 1.5 font ',12'
set object 71 rectangle from 32, 2  to 34, 3 lw 1 fillcolor 'khaki1'
set label 'khaki1' at 34.1, 2.5 font ',12'
set object 72 rectangle from 32, 3  to 34, 4 lw 1 fillcolor 'yellow'
set label 'yellow' at 34.1, 3.5 font ',12'
set object 73 rectangle from 32, 4  to 34, 5 lw 1 fillcolor 'khaki'
set label 'khaki' at 34.1, 4.5 font ',12'
set object 74 rectangle from 32, 5  to 34, 6 lw 1 fillcolor 'gold'
set label 'gold' at 34.1, 5.5 font ',12'
set object 75 rectangle from 32, 6  to 34, 7 lw 1 fillcolor 'orange'
set label 'orange' at 34.1, 6.5 font ',12'
set object 76 rectangle from 32, 7  to 34, 8 lw 1 fillcolor 'salmon'
set label 'salmon' at 34.1, 7.5 font ',12'
set object 77 rectangle from 32, 8  to 34, 9 lw 1 fillcolor 'dark-salmon'
set label 'dark-salmon' at 34.1, 8.5 font ',12'
set object 78 rectangle from 32, 9  to 34,10 lw 1 fillcolor 'dark-khaki'
set label 'dark-khaki' at 34.1, 9.5 font ',12'
set object 79 rectangle from 32,10  to 34,11 lw 1 fillcolor 'light-salmon'
set label 'light-salmon' at 34.1,10.5 font ',12'
set object 80 rectangle from 32,11  to 34,12 lw 1 fillcolor 'goldenrod'
set label 'goldenrod' at 34.1,11.5 font ',12'
set object 81 rectangle from 32,12  to 34,13 lw 1 fillcolor 'light-goldenrod'
set label 'light-goldenrod' at 34.1,12.5 font ',12'
set object 82 rectangle from 32,13  to 34,14 lw 1 fillcolor 'dark-goldenrod'
set label 'dark-goldenrod' at 34.1,13.5 font ',12'
set object 83 rectangle from 32,14  to 34,15 lw 1 fillcolor 'dark-yellow'
set label 'dark-yellow' at 34.1,14.5 font ',12'
set object 84 rectangle from 32,15  to 34,16 lw 1 fillcolor 'yellow4'
set label 'yellow4' at 34.1,15.5 font ',12'
set object 85 rectangle from 32,16  to 34,17 lw 1 fillcolor 'dark-orange'
set label 'dark-orange' at 34.1,16.5 font ',12'
set object 86 rectangle from 32,17  to 34,18 lw 1 fillcolor 'orangered4'
set label 'orangered4' at 34.1,17.5 font ',12'
set object 87 rectangle from 32,18  to 34,19 lw 1 fillcolor 'black'
set label 'black' at 34.1,18.5 font ',12'

set object 88 rectangle from 40, 0  to 42, 1 lw 1 fillcolor 'white'
set label 'white' at 42.1, 0.5 font ',12'
set object 89 rectangle from 40, 1  to 42, 2 lw 1 fillcolor 'grey100'
set label 'grey100' at 42.1, 1.5 font ',12'
set object 90 rectangle from 40, 2  to 42, 3 lw 1 fillcolor 'grey90'
set label 'grey90' at 42.1, 2.5 font ',12'
set object 91 rectangle from 40, 3  to 42, 4 lw 1 fillcolor 'light-grey'
set label 'light-grey' at 42.1, 3.5 font ',12'
set object 92 rectangle from 40, 4  to 42, 5 lw 1 fillcolor 'grey80'
set label 'grey80' at 42.1, 4.5 font ',12'
set object 93 rectangle from 40, 5  to 42, 6 lw 1 fillcolor 'grey'
set label 'grey' at 42.1, 5.5 font ',12'
set object 94 rectangle from 40, 6  to 42, 7 lw 1 fillcolor 'grey70'
set label 'grey70' at 42.1, 6.5 font ',12'
set object 95 rectangle from 40, 7  to 42, 8 lw 1 fillcolor 'slategrey'
set label 'slategrey' at 42.1, 7.5 font ',12'
set object 96 rectangle from 40, 8  to 42, 9 lw 1 fillcolor 'dark-grey'
set label 'dark-grey' at 42.1, 8.5 font ',12'
set object 97 rectangle from 40, 9  to 42,10 lw 1 fillcolor 'grey60'
set label 'grey60' at 42.1, 9.5 font ',12'
set object 98 rectangle from 40,10  to 42,11 lw 1 fillcolor 'grey50'
set label 'grey50' at 42.1,10.5 font ',12'
set object 99 rectangle from 40,11  to 42,12 lw 1 fillcolor 'grey40'
set label 'grey40' at 42.1,11.5 font ',12'
set object 100 rectangle from 40,12  to 42,13 lw 1 fillcolor 'grey30'
set label 'grey30' at 42.1,12.5 font ',12'
set object 101 rectangle from 40,13  to 42,14 lw 1 fillcolor 'grey20'
set label 'grey20' at 42.1,13.5 font ',12'
set object 102 rectangle from 40,14  to 42,15 lw 1 fillcolor 'grey10'
set label 'grey10' at 42.1,14.5 font ',12'
set object 103 rectangle from 40,15  to 42,16 lw 1 fillcolor 'black'
set label 'black' at 42.1,15.5 font ',12'

set object 104 rectangle from 48, 0  to 50, 1 lw 1 fillcolor 'white'
set label 'white' at 50.1, 0.5 font ',12'
set object 105 rectangle from 48, 1  to 50, 2 lw 1 fillcolor 'beige'
set label 'beige' at 50.1, 1.5 font ',12'
set object 106 rectangle from 48, 2  to 50, 3 lw 1 fillcolor 'antiquewhite'
set label 'antiquewhite' at 50.1, 2.5 font ',12'
set object 107 rectangle from 48, 3  to 50, 4 lw 1 fillcolor 'bisque'
set label 'bisque' at 50.1, 3.5 font ',12'
set object 108 rectangle from 48, 4  to 50, 5 lw 1 fillcolor 'olive'
set label 'olive' at 50.1, 4.5 font ',12'
set object 109 rectangle from 48, 5  to 50, 6 lw 1 fillcolor 'tan1'
set label 'tan1' at 50.1, 5.5 font ',12'
set object 110 rectangle from 48, 6  to 50, 7 lw 1 fillcolor 'sandybrown'
set label 'sandybrown' at 50.1, 6.5 font ',12'
set object 111 rectangle from 48, 7  to 50, 8 lw 1 fillcolor 'sienna1'
set label 'sienna1' at 50.1, 7.5 font ',12'
set object 112 rectangle from 48, 8  to 50, 9 lw 1 fillcolor 'sienna4'
set label 'sienna4' at 50.1, 8.5 font ',12'
set object 113 rectangle from 48, 9  to 50,10 lw 1 fillcolor 'brown'
set label 'brown' at 50.1, 9.5 font ',12'
set object 114 rectangle from 48,10  to 50,11 lw 1 fillcolor 'brown4'
set label 'brown4' at 50.1,10.5 font ',12'
set object 115 rectangle from 48,11  to 50,12 lw 1 fillcolor 'black'
set label 'black' at 50.1,11.5 font ',12'

set object 116 rectangle from 48,16  to 50,17 lw 1 fillcolor 'green'
set object 117 rectangle from 48,17  to 50,18 lw 1 fillcolor 'web-green'
set object 118 rectangle from 48,18  to 50,19 lw 1 fillcolor 'dark-green'
set object 119 rectangle from 50,16  to 52,17 lw 1 fillcolor 'cyan'
set object 120 rectangle from 50,17  to 52,18 lw 1 fillcolor 'web-blue'
set object 121 rectangle from 50,18  to 52,19 lw 1 fillcolor 'dark-blue'
set object 122 rectangle from 52,16  to 54,17 lw 1 fillcolor 'pink'
set object 123 rectangle from 52,17  to 54,18 lw 1 fillcolor 'red'
set object 124 rectangle from 52,18  to 54,19 lw 1 fillcolor 'dark-red'

plot 'try.dat' with points linecolor 'white' notitle
