%!PS-Adobe-2.0 EPSF-2.0
%%Creator: gnuplot 5.2 patchlevel 7
%%CreationDate: Thu Aug  5 11:34:05 2021
%%DocumentFonts: (atend)
%%BoundingBox: 50 50 410 302
%%EndComments
%%BeginProlog
/gnudict 256 dict def
gnudict begin
%
% The following true/false flags may be edited by hand if desired.
% The unit line width and grayscale image gamma correction may also be changed.
%
/Color true def
/Blacktext false def
/Solid false def
/Dashlength 1 def
/Landscape false def
/Level1 false def
/Level3 false def
/Rounded false def
/ClipToBoundingBox false def
/SuppressPDFMark false def
/TransparentPatterns false def
/gnulinewidth 5.000 def
/userlinewidth gnulinewidth def
/Gamma 1.0 def
/BackgroundColor {-1.000 -1.000 -1.000} def
%
/vshift -80 def
/dl1 {
  10.0 Dashlength userlinewidth gnulinewidth div mul mul mul
  Rounded { currentlinewidth 0.75 mul sub dup 0 le { pop 0.01 } if } if
} def
/dl2 {
  10.0 Dashlength userlinewidth gnulinewidth div mul mul mul
  Rounded { currentlinewidth 0.75 mul add } if
} def
/hpt_ 31.5 def
/vpt_ 31.5 def
/hpt hpt_ def
/vpt vpt_ def
/doclip {
  ClipToBoundingBox {
    newpath 50 50 moveto 410 50 lineto 410 302 lineto 50 302 lineto closepath
    clip
  } if
} def
%
% Gnuplot Prolog Version 5.2 (Dec 2017)
%
%/SuppressPDFMark true def
%
/M {moveto} bind def
/L {lineto} bind def
/R {rmoveto} bind def
/V {rlineto} bind def
/N {newpath moveto} bind def
/Z {closepath} bind def
/C {setrgbcolor} bind def
/f {rlineto fill} bind def
/g {setgray} bind def
/Gshow {show} def   % May be redefined later in the file to support UTF-8
/vpt2 vpt 2 mul def
/hpt2 hpt 2 mul def
/Lshow {currentpoint stroke M 0 vshift R 
	Blacktext {gsave 0 setgray textshow grestore} {textshow} ifelse} def
/Rshow {currentpoint stroke M dup stringwidth pop neg vshift R
	Blacktext {gsave 0 setgray textshow grestore} {textshow} ifelse} def
/Cshow {currentpoint stroke M dup stringwidth pop -2 div vshift R 
	Blacktext {gsave 0 setgray textshow grestore} {textshow} ifelse} def
/UP {dup vpt_ mul /vpt exch def hpt_ mul /hpt exch def
  /hpt2 hpt 2 mul def /vpt2 vpt 2 mul def} def
/DL {Color {setrgbcolor Solid {pop []} if 0 setdash}
 {pop pop pop 0 setgray Solid {pop []} if 0 setdash} ifelse} def
/BL {stroke userlinewidth 2 mul setlinewidth
	Rounded {1 setlinejoin 1 setlinecap} if} def
/AL {stroke userlinewidth 2 div setlinewidth
	Rounded {1 setlinejoin 1 setlinecap} if} def
/UL {dup gnulinewidth mul /userlinewidth exch def
	dup 1 lt {pop 1} if 10 mul /udl exch def} def
/PL {stroke userlinewidth setlinewidth
	Rounded {1 setlinejoin 1 setlinecap} if} def
3.8 setmiterlimit
% Classic Line colors (version 5.0)
/LCw {1 1 1} def
/LCb {0 0 0} def
/LCa {0 0 0} def
/LC0 {1 0 0} def
/LC1 {0 1 0} def
/LC2 {0 0 1} def
/LC3 {1 0 1} def
/LC4 {0 1 1} def
/LC5 {1 1 0} def
/LC6 {0 0 0} def
/LC7 {1 0.3 0} def
/LC8 {0.5 0.5 0.5} def
% Default dash patterns (version 5.0)
/LTB {BL [] LCb DL} def
/LTw {PL [] 1 setgray} def
/LTb {PL [] LCb DL} def
/LTa {AL [1 udl mul 2 udl mul] 0 setdash LCa setrgbcolor} def
/LT0 {PL [] LC0 DL} def
/LT1 {PL [2 dl1 3 dl2] LC1 DL} def
/LT2 {PL [1 dl1 1.5 dl2] LC2 DL} def
/LT3 {PL [6 dl1 2 dl2 1 dl1 2 dl2] LC3 DL} def
/LT4 {PL [1 dl1 2 dl2 6 dl1 2 dl2 1 dl1 2 dl2] LC4 DL} def
/LT5 {PL [4 dl1 2 dl2] LC5 DL} def
/LT6 {PL [1.5 dl1 1.5 dl2 1.5 dl1 1.5 dl2 1.5 dl1 6 dl2] LC6 DL} def
/LT7 {PL [3 dl1 3 dl2 1 dl1 3 dl2] LC7 DL} def
/LT8 {PL [2 dl1 2 dl2 2 dl1 6 dl2] LC8 DL} def
/SL {[] 0 setdash} def
/Pnt {stroke [] 0 setdash gsave 1 setlinecap M 0 0 V stroke grestore} def
/Dia {stroke [] 0 setdash 2 copy vpt add M
  hpt neg vpt neg V hpt vpt neg V
  hpt vpt V hpt neg vpt V closepath stroke
  Pnt} def
/Pls {stroke [] 0 setdash vpt sub M 0 vpt2 V
  currentpoint stroke M
  hpt neg vpt neg R hpt2 0 V stroke
 } def
/Box {stroke [] 0 setdash 2 copy exch hpt sub exch vpt add M
  0 vpt2 neg V hpt2 0 V 0 vpt2 V
  hpt2 neg 0 V closepath stroke
  Pnt} def
/Crs {stroke [] 0 setdash exch hpt sub exch vpt add M
  hpt2 vpt2 neg V currentpoint stroke M
  hpt2 neg 0 R hpt2 vpt2 V stroke} def
/TriU {stroke [] 0 setdash 2 copy vpt 1.12 mul add M
  hpt neg vpt -1.62 mul V
  hpt 2 mul 0 V
  hpt neg vpt 1.62 mul V closepath stroke
  Pnt} def
/Star {2 copy Pls Crs} def
/BoxF {stroke [] 0 setdash exch hpt sub exch vpt add M
  0 vpt2 neg V hpt2 0 V 0 vpt2 V
  hpt2 neg 0 V closepath fill} def
/TriUF {stroke [] 0 setdash vpt 1.12 mul add M
  hpt neg vpt -1.62 mul V
  hpt 2 mul 0 V
  hpt neg vpt 1.62 mul V closepath fill} def
/TriD {stroke [] 0 setdash 2 copy vpt 1.12 mul sub M
  hpt neg vpt 1.62 mul V
  hpt 2 mul 0 V
  hpt neg vpt -1.62 mul V closepath stroke
  Pnt} def
/TriDF {stroke [] 0 setdash vpt 1.12 mul sub M
  hpt neg vpt 1.62 mul V
  hpt 2 mul 0 V
  hpt neg vpt -1.62 mul V closepath fill} def
/DiaF {stroke [] 0 setdash vpt add M
  hpt neg vpt neg V hpt vpt neg V
  hpt vpt V hpt neg vpt V closepath fill} def
/Pent {stroke [] 0 setdash 2 copy gsave
  translate 0 hpt M 4 {72 rotate 0 hpt L} repeat
  closepath stroke grestore Pnt} def
/PentF {stroke [] 0 setdash gsave
  translate 0 hpt M 4 {72 rotate 0 hpt L} repeat
  closepath fill grestore} def
/Circle {stroke [] 0 setdash 2 copy
  hpt 0 360 arc stroke Pnt} def
/CircleF {stroke [] 0 setdash hpt 0 360 arc fill} def
/C0 {BL [] 0 setdash 2 copy moveto vpt 90 450 arc} bind def
/C1 {BL [] 0 setdash 2 copy moveto
	2 copy vpt 0 90 arc closepath fill
	vpt 0 360 arc closepath} bind def
/C2 {BL [] 0 setdash 2 copy moveto
	2 copy vpt 90 180 arc closepath fill
	vpt 0 360 arc closepath} bind def
/C3 {BL [] 0 setdash 2 copy moveto
	2 copy vpt 0 180 arc closepath fill
	vpt 0 360 arc closepath} bind def
/C4 {BL [] 0 setdash 2 copy moveto
	2 copy vpt 180 270 arc closepath fill
	vpt 0 360 arc closepath} bind def
/C5 {BL [] 0 setdash 2 copy moveto
	2 copy vpt 0 90 arc
	2 copy moveto
	2 copy vpt 180 270 arc closepath fill
	vpt 0 360 arc} bind def
/C6 {BL [] 0 setdash 2 copy moveto
	2 copy vpt 90 270 arc closepath fill
	vpt 0 360 arc closepath} bind def
/C7 {BL [] 0 setdash 2 copy moveto
	2 copy vpt 0 270 arc closepath fill
	vpt 0 360 arc closepath} bind def
/C8 {BL [] 0 setdash 2 copy moveto
	2 copy vpt 270 360 arc closepath fill
	vpt 0 360 arc closepath} bind def
/C9 {BL [] 0 setdash 2 copy moveto
	2 copy vpt 270 450 arc closepath fill
	vpt 0 360 arc closepath} bind def
/C10 {BL [] 0 setdash 2 copy 2 copy moveto vpt 270 360 arc closepath fill
	2 copy moveto
	2 copy vpt 90 180 arc closepath fill
	vpt 0 360 arc closepath} bind def
/C11 {BL [] 0 setdash 2 copy moveto
	2 copy vpt 0 180 arc closepath fill
	2 copy moveto
	2 copy vpt 270 360 arc closepath fill
	vpt 0 360 arc closepath} bind def
/C12 {BL [] 0 setdash 2 copy moveto
	2 copy vpt 180 360 arc closepath fill
	vpt 0 360 arc closepath} bind def
/C13 {BL [] 0 setdash 2 copy moveto
	2 copy vpt 0 90 arc closepath fill
	2 copy moveto
	2 copy vpt 180 360 arc closepath fill
	vpt 0 360 arc closepath} bind def
/C14 {BL [] 0 setdash 2 copy moveto
	2 copy vpt 90 360 arc closepath fill
	vpt 0 360 arc} bind def
/C15 {BL [] 0 setdash 2 copy vpt 0 360 arc closepath fill
	vpt 0 360 arc closepath} bind def
/Rec {newpath 4 2 roll moveto 1 index 0 rlineto 0 exch rlineto
	neg 0 rlineto closepath} bind def
/Square {dup Rec} bind def
/Bsquare {vpt sub exch vpt sub exch vpt2 Square} bind def
/S0 {BL [] 0 setdash 2 copy moveto 0 vpt rlineto BL Bsquare} bind def
/S1 {BL [] 0 setdash 2 copy vpt Square fill Bsquare} bind def
/S2 {BL [] 0 setdash 2 copy exch vpt sub exch vpt Square fill Bsquare} bind def
/S3 {BL [] 0 setdash 2 copy exch vpt sub exch vpt2 vpt Rec fill Bsquare} bind def
/S4 {BL [] 0 setdash 2 copy exch vpt sub exch vpt sub vpt Square fill Bsquare} bind def
/S5 {BL [] 0 setdash 2 copy 2 copy vpt Square fill
	exch vpt sub exch vpt sub vpt Square fill Bsquare} bind def
/S6 {BL [] 0 setdash 2 copy exch vpt sub exch vpt sub vpt vpt2 Rec fill Bsquare} bind def
/S7 {BL [] 0 setdash 2 copy exch vpt sub exch vpt sub vpt vpt2 Rec fill
	2 copy vpt Square fill Bsquare} bind def
/S8 {BL [] 0 setdash 2 copy vpt sub vpt Square fill Bsquare} bind def
/S9 {BL [] 0 setdash 2 copy vpt sub vpt vpt2 Rec fill Bsquare} bind def
/S10 {BL [] 0 setdash 2 copy vpt sub vpt Square fill 2 copy exch vpt sub exch vpt Square fill
	Bsquare} bind def
/S11 {BL [] 0 setdash 2 copy vpt sub vpt Square fill 2 copy exch vpt sub exch vpt2 vpt Rec fill
	Bsquare} bind def
/S12 {BL [] 0 setdash 2 copy exch vpt sub exch vpt sub vpt2 vpt Rec fill Bsquare} bind def
/S13 {BL [] 0 setdash 2 copy exch vpt sub exch vpt sub vpt2 vpt Rec fill
	2 copy vpt Square fill Bsquare} bind def
/S14 {BL [] 0 setdash 2 copy exch vpt sub exch vpt sub vpt2 vpt Rec fill
	2 copy exch vpt sub exch vpt Square fill Bsquare} bind def
/S15 {BL [] 0 setdash 2 copy Bsquare fill Bsquare} bind def
/D0 {gsave translate 45 rotate 0 0 S0 stroke grestore} bind def
/D1 {gsave translate 45 rotate 0 0 S1 stroke grestore} bind def
/D2 {gsave translate 45 rotate 0 0 S2 stroke grestore} bind def
/D3 {gsave translate 45 rotate 0 0 S3 stroke grestore} bind def
/D4 {gsave translate 45 rotate 0 0 S4 stroke grestore} bind def
/D5 {gsave translate 45 rotate 0 0 S5 stroke grestore} bind def
/D6 {gsave translate 45 rotate 0 0 S6 stroke grestore} bind def
/D7 {gsave translate 45 rotate 0 0 S7 stroke grestore} bind def
/D8 {gsave translate 45 rotate 0 0 S8 stroke grestore} bind def
/D9 {gsave translate 45 rotate 0 0 S9 stroke grestore} bind def
/D10 {gsave translate 45 rotate 0 0 S10 stroke grestore} bind def
/D11 {gsave translate 45 rotate 0 0 S11 stroke grestore} bind def
/D12 {gsave translate 45 rotate 0 0 S12 stroke grestore} bind def
/D13 {gsave translate 45 rotate 0 0 S13 stroke grestore} bind def
/D14 {gsave translate 45 rotate 0 0 S14 stroke grestore} bind def
/D15 {gsave translate 45 rotate 0 0 S15 stroke grestore} bind def
/DiaE {stroke [] 0 setdash vpt add M
  hpt neg vpt neg V hpt vpt neg V
  hpt vpt V hpt neg vpt V closepath stroke} def
/BoxE {stroke [] 0 setdash exch hpt sub exch vpt add M
  0 vpt2 neg V hpt2 0 V 0 vpt2 V
  hpt2 neg 0 V closepath stroke} def
/TriUE {stroke [] 0 setdash vpt 1.12 mul add M
  hpt neg vpt -1.62 mul V
  hpt 2 mul 0 V
  hpt neg vpt 1.62 mul V closepath stroke} def
/TriDE {stroke [] 0 setdash vpt 1.12 mul sub M
  hpt neg vpt 1.62 mul V
  hpt 2 mul 0 V
  hpt neg vpt -1.62 mul V closepath stroke} def
/PentE {stroke [] 0 setdash gsave
  translate 0 hpt M 4 {72 rotate 0 hpt L} repeat
  closepath stroke grestore} def
/CircE {stroke [] 0 setdash 
  hpt 0 360 arc stroke} def
/Opaque {gsave closepath 1 setgray fill grestore 0 setgray closepath} def
/DiaW {stroke [] 0 setdash vpt add M
  hpt neg vpt neg V hpt vpt neg V
  hpt vpt V hpt neg vpt V Opaque stroke} def
/BoxW {stroke [] 0 setdash exch hpt sub exch vpt add M
  0 vpt2 neg V hpt2 0 V 0 vpt2 V
  hpt2 neg 0 V Opaque stroke} def
/TriUW {stroke [] 0 setdash vpt 1.12 mul add M
  hpt neg vpt -1.62 mul V
  hpt 2 mul 0 V
  hpt neg vpt 1.62 mul V Opaque stroke} def
/TriDW {stroke [] 0 setdash vpt 1.12 mul sub M
  hpt neg vpt 1.62 mul V
  hpt 2 mul 0 V
  hpt neg vpt -1.62 mul V Opaque stroke} def
/PentW {stroke [] 0 setdash gsave
  translate 0 hpt M 4 {72 rotate 0 hpt L} repeat
  Opaque stroke grestore} def
/CircW {stroke [] 0 setdash 
  hpt 0 360 arc Opaque stroke} def
/BoxFill {gsave Rec 1 setgray fill grestore} def
/Density {
  /Fillden exch def
  currentrgbcolor
  /ColB exch def /ColG exch def /ColR exch def
  /ColR ColR Fillden mul Fillden sub 1 add def
  /ColG ColG Fillden mul Fillden sub 1 add def
  /ColB ColB Fillden mul Fillden sub 1 add def
  ColR ColG ColB setrgbcolor} def
/BoxColFill {gsave Rec PolyFill} def
/PolyFill {gsave Density fill grestore grestore} def
/h {rlineto rlineto rlineto closepath gsave fill grestore stroke} bind def
%
% PostScript Level 1 Pattern Fill routine for rectangles
% Usage: x y w h s a XX PatternFill
%	x,y = lower left corner of box to be filled
%	w,h = width and height of box
%	  a = angle in degrees between lines and x-axis
%	 XX = 0/1 for no/yes cross-hatch
%
/PatternFill {gsave /PFa [ 9 2 roll ] def
  PFa 0 get PFa 2 get 2 div add PFa 1 get PFa 3 get 2 div add translate
  PFa 2 get -2 div PFa 3 get -2 div PFa 2 get PFa 3 get Rec
  TransparentPatterns {} {gsave 1 setgray fill grestore} ifelse
  clip
  currentlinewidth 0.5 mul setlinewidth
  /PFs PFa 2 get dup mul PFa 3 get dup mul add sqrt def
  0 0 M PFa 5 get rotate PFs -2 div dup translate
  0 1 PFs PFa 4 get div 1 add floor cvi
	{PFa 4 get mul 0 M 0 PFs V} for
  0 PFa 6 get ne {
	0 1 PFs PFa 4 get div 1 add floor cvi
	{PFa 4 get mul 0 2 1 roll M PFs 0 V} for
 } if
  stroke grestore} def
%
/languagelevel where
 {pop languagelevel} {1} ifelse
dup 2 lt
	{/InterpretLevel1 true def
	 /InterpretLevel3 false def}
	{/InterpretLevel1 Level1 def
	 2 gt
	    {/InterpretLevel3 Level3 def}
	    {/InterpretLevel3 false def}
	 ifelse }
 ifelse
%
% PostScript level 2 pattern fill definitions
%
/Level2PatternFill {
/Tile8x8 {/PaintType 2 /PatternType 1 /TilingType 1 /BBox [0 0 8 8] /XStep 8 /YStep 8}
	bind def
/KeepColor {currentrgbcolor [/Pattern /DeviceRGB] setcolorspace} bind def
<< Tile8x8
 /PaintProc {0.5 setlinewidth pop 0 0 M 8 8 L 0 8 M 8 0 L stroke} 
>> matrix makepattern
/Pat1 exch def
<< Tile8x8
 /PaintProc {0.5 setlinewidth pop 0 0 M 8 8 L 0 8 M 8 0 L stroke
	0 4 M 4 8 L 8 4 L 4 0 L 0 4 L stroke}
>> matrix makepattern
/Pat2 exch def
<< Tile8x8
 /PaintProc {0.5 setlinewidth pop 0 0 M 0 8 L
	8 8 L 8 0 L 0 0 L fill}
>> matrix makepattern
/Pat3 exch def
<< Tile8x8
 /PaintProc {0.5 setlinewidth pop -4 8 M 8 -4 L
	0 12 M 12 0 L stroke}
>> matrix makepattern
/Pat4 exch def
<< Tile8x8
 /PaintProc {0.5 setlinewidth pop -4 0 M 8 12 L
	0 -4 M 12 8 L stroke}
>> matrix makepattern
/Pat5 exch def
<< Tile8x8
 /PaintProc {0.5 setlinewidth pop -2 8 M 4 -4 L
	0 12 M 8 -4 L 4 12 M 10 0 L stroke}
>> matrix makepattern
/Pat6 exch def
<< Tile8x8
 /PaintProc {0.5 setlinewidth pop -2 0 M 4 12 L
	0 -4 M 8 12 L 4 -4 M 10 8 L stroke}
>> matrix makepattern
/Pat7 exch def
<< Tile8x8
 /PaintProc {0.5 setlinewidth pop 8 -2 M -4 4 L
	12 0 M -4 8 L 12 4 M 0 10 L stroke}
>> matrix makepattern
/Pat8 exch def
<< Tile8x8
 /PaintProc {0.5 setlinewidth pop 0 -2 M 12 4 L
	-4 0 M 12 8 L -4 4 M 8 10 L stroke}
>> matrix makepattern
/Pat9 exch def
/Pattern1 {PatternBgnd KeepColor Pat1 setpattern} bind def
/Pattern2 {PatternBgnd KeepColor Pat2 setpattern} bind def
/Pattern3 {PatternBgnd KeepColor Pat3 setpattern} bind def
/Pattern4 {PatternBgnd KeepColor Landscape {Pat5} {Pat4} ifelse setpattern} bind def
/Pattern5 {PatternBgnd KeepColor Landscape {Pat4} {Pat5} ifelse setpattern} bind def
/Pattern6 {PatternBgnd KeepColor Landscape {Pat9} {Pat6} ifelse setpattern} bind def
/Pattern7 {PatternBgnd KeepColor Landscape {Pat8} {Pat7} ifelse setpattern} bind def
} def
%
%
%End of PostScript Level 2 code
%
/PatternBgnd {
  TransparentPatterns {} {gsave 1 setgray fill grestore} ifelse
} def
%
% Substitute for Level 2 pattern fill codes with
% grayscale if Level 2 support is not selected.
%
/Level1PatternFill {
/Pattern1 {0.250 Density} bind def
/Pattern2 {0.500 Density} bind def
/Pattern3 {0.750 Density} bind def
/Pattern4 {0.125 Density} bind def
/Pattern5 {0.375 Density} bind def
/Pattern6 {0.625 Density} bind def
/Pattern7 {0.875 Density} bind def
} def
%
% Now test for support of Level 2 code
%
Level1 {Level1PatternFill} {Level2PatternFill} ifelse
%
/Symbol-Oblique /Symbol findfont [1 0 .167 1 0 0] makefont
dup length dict begin {1 index /FID eq {pop pop} {def} ifelse} forall
currentdict end definefont pop
%
/Metrics {ExtendTextBox Gswidth} def
/Lwidth {currentpoint stroke M 0 vshift R Metrics} def
/Rwidth {currentpoint stroke M dup stringwidth pop neg vshift R Metrics} def
/Cwidth {currentpoint stroke M dup stringwidth pop -2 div vshift R Metrics} def
/GLwidth {currentpoint stroke M 0 vshift R {ExtendTextBox} forall} def
/GRwidth {currentpoint stroke M dup Gwidth vshift R {ExtendTextBox} forall} def
/GCwidth {currentpoint stroke M dup Gwidth 2 div vshift R {ExtendTextBox} forall} def
/GLwidth2 {0 Gwidth AddGlyphWidth} def
/GRwidth2 {Gwidth -1 mul 0 AddGlyphWidth} def
/GCwidth2 {Gwidth 2 div dup -1 mul AddGlyphWidth} def
/AddGlyphWidth { dup TBx2 gt {userdict /TBx2 3 -1 roll put} {pop} ifelse
                 dup TBx1 lt {userdict /TBx1 3 -1 roll put} {pop} ifelse } def
/MFshow {
   { dup 5 get 3 ge
     { 5 get 3 eq {gsave} {grestore} ifelse }
     {dup dup 0 get findfont exch 1 get scalefont setfont
     [ currentpoint ] exch dup 2 get 0 exch R dup 5 get 2 ne {dup dup 6
     get exch 4 get {textshow} {Metrics pop 0 R} ifelse }if dup 5 get 0 eq
     {dup 3 get {2 get neg 0 exch R pop} {pop aload pop M} ifelse} {dup 5
     get 1 eq {dup 2 get exch dup 3 get exch 6 get Gswidth pop -2 div
     dup 0 R} {dup 6 get Gswidth pop -2 div 0 R 6 get
     textshow 2 index {aload pop M neg 3 -1 roll neg R pop pop} {pop pop pop
     pop aload pop M} ifelse }ifelse }ifelse }
     ifelse }
   forall} def
/Gswidth {dup type /stringtype eq {stringwidth} {pop (n) stringwidth} ifelse} def
/MFwidth {0 exch { dup 5 get 3 ge { 5 get 3 eq { 0 } { pop } ifelse }
 {dup 3 get{dup dup 0 get findfont exch 1 get scalefont setfont
     6 get Gswidth pop add} {pop} ifelse} ifelse} forall} def
/MLshow { currentpoint stroke M
  0 exch R
  Blacktext {gsave 0 setgray MFshow grestore} {MFshow} ifelse } bind def
/MRshow { currentpoint stroke M
  exch dup MFwidth neg 3 -1 roll R
  Blacktext {gsave 0 setgray MFshow grestore} {MFshow} ifelse } bind def
/MCshow { currentpoint stroke M
  exch dup MFwidth -2 div 3 -1 roll R
  Blacktext {gsave 0 setgray MFshow grestore} {MFshow} ifelse } bind def
/XYsave    { [( ) 1 2 true false 3 ()] } bind def
/XYrestore { [( ) 1 2 true false 4 ()] } bind def
Level1 SuppressPDFMark or 
{} {
/SDict 10 dict def
systemdict /pdfmark known not {
  userdict /pdfmark systemdict /cleartomark get put
} if
SDict begin [
  /Title ()
  /Subject (gnuplot plot)
  /Creator (gnuplot 5.2 patchlevel 7)
%  /Producer (gnuplot)
%  /Keywords ()
  /CreationDate (Thu Aug  5 11:34:05 2021)
  /DOCINFO pdfmark
end
} ifelse
%
% Support for boxed text - Ethan A Merritt Sep 2016
%
/InitTextBox { userdict /TBy2 3 -1 roll put userdict /TBx2 3 -1 roll put
           userdict /TBy1 3 -1 roll put userdict /TBx1 3 -1 roll put
	   /Boxing true def } def
/ExtendTextBox { dup type /stringtype eq
    { Boxing { gsave dup false charpath pathbbox
      dup TBy2 gt {userdict /TBy2 3 -1 roll put} {pop} ifelse
      dup TBx2 gt {userdict /TBx2 3 -1 roll put} {pop} ifelse
      dup TBy1 lt {userdict /TBy1 3 -1 roll put} {pop} ifelse
      dup TBx1 lt {userdict /TBx1 3 -1 roll put} {pop} ifelse
      grestore } if }
    {} ifelse} def
/PopTextBox { newpath TBx1 TBxmargin sub TBy1 TBymargin sub M
               TBx1 TBxmargin sub TBy2 TBymargin add L
	       TBx2 TBxmargin add TBy2 TBymargin add L
	       TBx2 TBxmargin add TBy1 TBymargin sub L closepath } def
/DrawTextBox { PopTextBox stroke /Boxing false def} def
/FillTextBox { gsave PopTextBox fill grestore /Boxing false def} def
0 0 0 0 InitTextBox
/TBxmargin 20 def
/TBymargin 20 def
/Boxing false def
/textshow { ExtendTextBox Gshow } def
%
end
%%EndProlog
%%Page: 1 1
gnudict begin
gsave
doclip
50 50 translate
0.050 0.050 scale
0 setgray
newpath
(Times-Roman) findfont 240 scalefont setfont
BackgroundColor 0 lt 3 1 roll 0 lt exch 0 lt or or not {BackgroundColor C 1.000 0 0 7200.00 5040.00 BoxColFill} if
1.000 UL
LTb
LCb setrgbcolor
792 480 M
63 0 V
5912 0 R
-63 0 V
stroke
648 480 M
[ [(Times-Roman) 240.0 0.0 true true 0 ( 0)]
] -80.0 MRshow
/Times-Roman findfont 240 scalefont setfont
/vshift -80 def
1.000 UL
LTb
LCb setrgbcolor
792 1560 M
63 0 V
5912 0 R
-63 0 V
stroke
648 1560 M
[ [(Times-Roman) 240.0 0.0 true true 0 ( 5)]
] -80.0 MRshow
/Times-Roman findfont 240 scalefont setfont
1.000 UL
LTb
LCb setrgbcolor
792 2640 M
63 0 V
5912 0 R
-63 0 V
stroke
648 2640 M
[ [(Times-Roman) 240.0 0.0 true true 0 ( 10)]
] -80.0 MRshow
/Times-Roman findfont 240 scalefont setfont
1.000 UL
LTb
LCb setrgbcolor
792 3719 M
63 0 V
5912 0 R
-63 0 V
stroke
648 3719 M
[ [(Times-Roman) 240.0 0.0 true true 0 ( 15)]
] -80.0 MRshow
/Times-Roman findfont 240 scalefont setfont
1.000 UL
LTb
LCb setrgbcolor
792 4799 M
63 0 V
5912 0 R
-63 0 V
stroke
648 4799 M
[ [(Times-Roman) 240.0 0.0 true true 0 ( 20)]
] -80.0 MRshow
/Times-Roman findfont 240 scalefont setfont
1.000 UL
LTb
LCb setrgbcolor
792 480 M
0 63 V
0 4256 R
0 -63 V
stroke
792 240 M
[ [(Times-Roman) 240.0 0.0 true true 0 ( 0)]
] -80.0 MCshow
/Times-Roman findfont 240 scalefont setfont
1.000 UL
LTb
LCb setrgbcolor
1878 480 M
0 63 V
0 4256 R
0 -63 V
stroke
1878 240 M
[ [(Times-Roman) 240.0 0.0 true true 0 ( 10)]
] -80.0 MCshow
/Times-Roman findfont 240 scalefont setfont
1.000 UL
LTb
LCb setrgbcolor
2965 480 M
0 63 V
0 4256 R
0 -63 V
stroke
2965 240 M
[ [(Times-Roman) 240.0 0.0 true true 0 ( 20)]
] -80.0 MCshow
/Times-Roman findfont 240 scalefont setfont
1.000 UL
LTb
LCb setrgbcolor
4051 480 M
0 63 V
0 4256 R
0 -63 V
stroke
4051 240 M
[ [(Times-Roman) 240.0 0.0 true true 0 ( 30)]
] -80.0 MCshow
/Times-Roman findfont 240 scalefont setfont
1.000 UL
LTb
LCb setrgbcolor
5137 480 M
0 63 V
0 4256 R
0 -63 V
stroke
5137 240 M
[ [(Times-Roman) 240.0 0.0 true true 0 ( 40)]
] -80.0 MCshow
/Times-Roman findfont 240 scalefont setfont
1.000 UL
LTb
LCb setrgbcolor
6224 480 M
0 63 V
0 4256 R
0 -63 V
stroke
6224 240 M
[ [(Times-Roman) 240.0 0.0 true true 0 ( 50)]
] -80.0 MCshow
/Times-Roman findfont 240 scalefont setfont
1.000 UL
LTb
LCb setrgbcolor
1.000 UL
LTB
LCb setrgbcolor
792 4799 N
792 480 L
5975 0 V
0 4319 V
-5975 0 V
Z stroke
1.000 UL
LTb
1.00 1.00 1.00 C
1.000 792 480 217 216 BoxColFill
0.00 0.00 0.00 C
792 480 N
0 216 V
217 0 V
0 -216 V
-217 0 V
Z stroke
1.000 UL
LTb
0.94 1.00 0.94 C
1.000 792 696 217 216 BoxColFill
0.00 0.00 0.00 C
792 696 N
0 216 V
217 0 V
0 -216 V
-217 0 V
Z stroke
1.000 UL
LTb
0.76 1.00 0.76 C
1.000 792 912 217 216 BoxColFill
0.00 0.00 0.00 C
792 912 N
0 216 V
217 0 V
0 -216 V
-217 0 V
Z stroke
1.000 UL
LTb
0.63 1.00 0.13 C
1.000 792 1128 217 216 BoxColFill
0.00 0.00 0.00 C
792 1128 N
0 216 V
217 0 V
0 -216 V
-217 0 V
Z stroke
1.000 UL
LTb
0.49 1.00 0.25 C
1.000 792 1344 217 216 BoxColFill
0.00 0.00 0.00 C
792 1344 N
0 216 V
217 0 V
0 -216 V
-217 0 V
Z stroke
1.000 UL
LTb
0.00 1.00 0.50 C
1.000 792 1560 217 216 BoxColFill
0.00 0.00 0.00 C
792 1560 N
0 216 V
217 0 V
0 -216 V
-217 0 V
Z stroke
1.000 UL
LTb
0.00 1.00 0.00 C
1.000 792 1776 217 216 BoxColFill
0.00 0.00 0.00 C
792 1776 N
0 216 V
217 0 V
0 -216 V
-217 0 V
Z stroke
1.000 UL
LTb
0.56 0.93 0.56 C
1.000 792 1992 217 216 BoxColFill
0.00 0.00 0.00 C
792 1992 N
0 216 V
217 0 V
0 -216 V
-217 0 V
Z stroke
1.000 UL
LTb
0.00 0.75 0.00 C
1.000 792 2208 217 216 BoxColFill
0.00 0.00 0.00 C
792 2208 N
0 216 V
217 0 V
0 -216 V
-217 0 V
Z stroke
1.000 UL
LTb
0.18 0.55 0.34 C
1.000 792 2424 217 216 BoxColFill
0.00 0.00 0.00 C
792 2424 N
0 216 V
217 0 V
0 -216 V
-217 0 V
Z stroke
1.000 UL
LTb
0.13 0.55 0.13 C
1.000 792 2640 217 215 BoxColFill
0.00 0.00 0.00 C
792 2640 N
0 215 V
217 0 V
0 -215 V
-217 0 V
Z stroke
1.000 UL
LTb
0.25 0.50 0.00 C
1.000 792 2855 217 216 BoxColFill
0.00 0.00 0.00 C
792 2855 N
0 216 V
217 0 V
0 -216 V
-217 0 V
Z stroke
1.000 UL
LTb
0.00 0.50 0.25 C
1.000 792 3071 217 216 BoxColFill
0.00 0.00 0.00 C
792 3071 N
0 216 V
217 0 V
0 -216 V
-217 0 V
Z stroke
1.000 UL
LTb
0.33 0.42 0.18 C
1.000 792 3287 217 216 BoxColFill
0.00 0.00 0.00 C
792 3287 N
0 216 V
217 0 V
0 -216 V
-217 0 V
Z stroke
1.000 UL
LTb
0.00 0.39 0.00 C
1.000 792 3503 217 216 BoxColFill
0.00 0.00 0.00 C
792 3503 N
0 216 V
217 0 V
0 -216 V
-217 0 V
Z stroke
1.000 UL
LTb
0.00 0.00 0.00 C
1.000 792 3719 217 216 BoxColFill
0.00 0.00 0.00 C
792 3719 N
0 216 V
217 0 V
0 -216 V
-217 0 V
Z stroke
1.000 UL
LTb
1.00 1.00 1.00 C
1.000 1661 480 217 216 BoxColFill
0.00 0.00 0.00 C
1661 480 N
0 216 V
217 0 V
0 -216 V
-217 0 V
Z stroke
1.000 UL
LTb
0.88 1.00 1.00 C
1.000 1661 696 217 216 BoxColFill
0.00 0.00 0.00 C
1661 696 N
0 216 V
217 0 V
0 -216 V
-217 0 V
Z stroke
1.000 UL
LTb
0.00 1.00 1.00 C
1.000 1661 912 217 216 BoxColFill
0.00 0.00 0.00 C
1661 912 N
0 216 V
217 0 V
0 -216 V
-217 0 V
Z stroke
1.000 UL
LTb
0.00 0.93 0.93 C
1.000 1661 1128 217 216 BoxColFill
0.00 0.00 0.00 C
1661 1128 N
0 216 V
217 0 V
0 -216 V
-217 0 V
Z stroke
1.000 UL
LTb
0.69 0.93 0.93 C
1.000 1661 1344 217 216 BoxColFill
0.00 0.00 0.00 C
1661 1344 N
0 216 V
217 0 V
0 -216 V
-217 0 V
Z stroke
1.000 UL
LTb
0.25 0.88 0.82 C
1.000 1661 1560 217 216 BoxColFill
0.00 0.00 0.00 C
1661 1560 N
0 216 V
217 0 V
0 -216 V
-217 0 V
Z stroke
1.000 UL
LTb
0.00 0.81 0.82 C
1.000 1661 1776 217 216 BoxColFill
0.00 0.00 0.00 C
1661 1776 N
0 216 V
217 0 V
0 -216 V
-217 0 V
Z stroke
1.000 UL
LTb
0.68 0.85 0.90 C
1.000 1661 1992 217 216 BoxColFill
0.00 0.00 0.00 C
1661 1992 N
0 216 V
217 0 V
0 -216 V
-217 0 V
Z stroke
1.000 UL
LTb
0.53 0.81 0.92 C
1.000 1661 2208 217 216 BoxColFill
0.00 0.00 0.00 C
1661 2208 N
0 216 V
217 0 V
0 -216 V
-217 0 V
Z stroke
1.000 UL
LTb
0.50 0.38 1.00 C
1.000 1661 2424 217 216 BoxColFill
0.00 0.00 0.00 C
1661 2424 N
0 216 V
217 0 V
0 -216 V
-217 0 V
Z stroke
1.000 UL
LTb
0.00 0.50 1.00 C
1.000 1661 2640 217 215 BoxColFill
0.00 0.00 0.00 C
1661 2640 N
0 215 V
217 0 V
0 -215 V
-217 0 V
Z stroke
1.000 UL
LTb
0.25 0.41 0.88 C
1.000 1661 2855 217 216 BoxColFill
0.00 0.00 0.00 C
1661 2855 N
0 216 V
217 0 V
0 -216 V
-217 0 V
Z stroke
1.000 UL
LTb
0.19 0.38 0.50 C
1.000 1661 3071 217 216 BoxColFill
0.00 0.00 0.00 C
1661 3071 N
0 216 V
217 0 V
0 -216 V
-217 0 V
Z stroke
1.000 UL
LTb
0.00 0.00 1.00 C
1.000 1661 3287 217 216 BoxColFill
0.00 0.00 0.00 C
1661 3287 N
0 216 V
217 0 V
0 -216 V
-217 0 V
Z stroke
1.000 UL
LTb
0.00 0.00 0.80 C
1.000 1661 3503 217 216 BoxColFill
0.00 0.00 0.00 C
1661 3503 N
0 216 V
217 0 V
0 -216 V
-217 0 V
Z stroke
1.000 UL
LTb
0.00 0.00 0.50 C
1.000 1661 3719 217 216 BoxColFill
0.00 0.00 0.00 C
1661 3719 N
0 216 V
217 0 V
0 -216 V
-217 0 V
Z stroke
1.000 UL
LTb
0.00 0.00 0.55 C
1.000 1661 3935 217 216 BoxColFill
0.00 0.00 0.00 C
1661 3935 N
0 216 V
217 0 V
0 -216 V
-217 0 V
Z stroke
1.000 UL
LTb
0.10 0.10 0.44 C
1.000 1661 4151 217 216 BoxColFill
0.00 0.00 0.00 C
1661 4151 N
0 216 V
217 0 V
0 -216 V
-217 0 V
Z stroke
1.000 UL
LTb
0.00 0.00 0.00 C
1.000 1661 4367 217 216 BoxColFill
0.00 0.00 0.00 C
1661 4367 N
0 216 V
217 0 V
0 -216 V
-217 0 V
Z stroke
1.000 UL
LTb
1.00 1.00 1.00 C
1.000 2530 480 217 216 BoxColFill
0.00 0.00 0.00 C
2530 480 N
0 216 V
217 0 V
0 -216 V
-217 0 V
Z stroke
1.000 UL
LTb
1.00 1.00 0.00 C
1.000 2530 696 217 216 BoxColFill
0.00 0.00 0.00 C
2530 696 N
0 216 V
217 0 V
0 -216 V
-217 0 V
Z stroke
1.000 UL
LTb
0.78 0.78 0.00 C
1.000 2530 912 217 216 BoxColFill
0.00 0.00 0.00 C
2530 912 N
0 216 V
217 0 V
0 -216 V
-217 0 V
Z stroke
1.000 UL
LTb
0.50 0.50 0.00 C
1.000 2530 1128 217 216 BoxColFill
0.00 0.00 0.00 C
2530 1128 N
0 216 V
217 0 V
0 -216 V
-217 0 V
Z stroke
1.000 UL
LTb
1.00 0.50 0.31 C
1.000 2530 1344 217 216 BoxColFill
0.00 0.00 0.00 C
2530 1344 N
0 216 V
217 0 V
0 -216 V
-217 0 V
Z stroke
1.000 UL
LTb
0.94 0.50 0.50 C
1.000 2530 1560 217 216 BoxColFill
0.00 0.00 0.00 C
2530 1560 N
0 216 V
217 0 V
0 -216 V
-217 0 V
Z stroke
1.000 UL
LTb
1.00 0.65 0.00 C
1.000 2530 1776 217 216 BoxColFill
0.00 0.00 0.00 C
2530 1776 N
0 216 V
217 0 V
0 -216 V
-217 0 V
Z stroke
1.000 UL
LTb
1.00 0.63 0.38 C
1.000 2530 1992 217 216 BoxColFill
0.00 0.00 0.00 C
2530 1992 N
0 216 V
217 0 V
0 -216 V
-217 0 V
Z stroke
1.000 UL
LTb
1.00 0.27 0.00 C
1.000 2530 2208 217 216 BoxColFill
0.00 0.00 0.00 C
2530 2208 N
0 216 V
217 0 V
0 -216 V
-217 0 V
Z stroke
1.000 UL
LTb
1.00 0.00 0.00 C
1.000 2530 2424 217 216 BoxColFill
0.00 0.00 0.00 C
2530 2424 N
0 216 V
217 0 V
0 -216 V
-217 0 V
Z stroke
1.000 UL
LTb
0.94 0.20 0.20 C
1.000 2530 2640 217 215 BoxColFill
0.00 0.00 0.00 C
2530 2640 N
0 215 V
217 0 V
0 -215 V
-217 0 V
Z stroke
1.000 UL
LTb
0.75 0.25 0.00 C
1.000 2530 2855 217 216 BoxColFill
0.00 0.00 0.00 C
2530 2855 N
0 216 V
217 0 V
0 -216 V
-217 0 V
Z stroke
1.000 UL
LTb
0.65 0.16 0.16 C
1.000 2530 3071 217 216 BoxColFill
0.00 0.00 0.00 C
2530 3071 N
0 216 V
217 0 V
0 -216 V
-217 0 V
Z stroke
1.000 UL
LTb
0.55 0.00 0.00 C
1.000 2530 3287 217 216 BoxColFill
0.00 0.00 0.00 C
2530 3287 N
0 216 V
217 0 V
0 -216 V
-217 0 V
Z stroke
1.000 UL
LTb
0.50 0.08 0.00 C
1.000 2530 3503 217 216 BoxColFill
0.00 0.00 0.00 C
2530 3503 N
0 216 V
217 0 V
0 -216 V
-217 0 V
Z stroke
1.000 UL
LTb
0.50 0.08 0.08 C
1.000 2530 3719 217 216 BoxColFill
0.00 0.00 0.00 C
2530 3719 N
0 216 V
217 0 V
0 -216 V
-217 0 V
Z stroke
1.000 UL
LTb
0.00 0.00 0.00 C
1.000 2530 3935 217 216 BoxColFill
0.00 0.00 0.00 C
2530 3935 N
0 216 V
217 0 V
0 -216 V
-217 0 V
Z stroke
1.000 UL
LTb
1.00 1.00 1.00 C
1.000 3399 480 218 216 BoxColFill
0.00 0.00 0.00 C
3399 480 N
0 216 V
218 0 V
0 -216 V
-218 0 V
Z stroke
1.000 UL
LTb
1.00 0.71 0.76 C
1.000 3399 696 218 216 BoxColFill
0.00 0.00 0.00 C
3399 696 N
0 216 V
218 0 V
0 -216 V
-218 0 V
Z stroke
1.000 UL
LTb
1.00 0.75 0.75 C
1.000 3399 912 218 216 BoxColFill
0.00 0.00 0.00 C
3399 912 N
0 216 V
218 0 V
0 -216 V
-218 0 V
Z stroke
1.000 UL
LTb
0.87 0.63 0.87 C
1.000 3399 1128 218 216 BoxColFill
0.00 0.00 0.00 C
3399 1128 N
0 216 V
218 0 V
0 -216 V
-218 0 V
Z stroke
1.000 UL
LTb
1.00 0.50 1.00 C
1.000 3399 1344 218 216 BoxColFill
0.00 0.00 0.00 C
3399 1344 N
0 216 V
218 0 V
0 -216 V
-218 0 V
Z stroke
1.000 UL
LTb
0.93 0.51 0.93 C
1.000 3399 1560 218 216 BoxColFill
0.00 0.00 0.00 C
3399 1560 N
0 216 V
218 0 V
0 -216 V
-218 0 V
Z stroke
1.000 UL
LTb
0.94 0.33 0.94 C
1.000 3399 1776 218 216 BoxColFill
0.00 0.00 0.00 C
3399 1776 N
0 216 V
218 0 V
0 -216 V
-218 0 V
Z stroke
1.000 UL
LTb
1.00 0.00 1.00 C
1.000 3399 1992 218 216 BoxColFill
0.00 0.00 0.00 C
3399 1992 N
0 216 V
218 0 V
0 -216 V
-218 0 V
Z stroke
1.000 UL
LTb
1.00 0.08 0.58 C
1.000 3399 2208 218 216 BoxColFill
0.00 0.00 0.00 C
3399 2208 N
0 216 V
218 0 V
0 -216 V
-218 0 V
Z stroke
1.000 UL
LTb
0.75 0.50 1.00 C
1.000 3399 2424 218 216 BoxColFill
0.00 0.00 0.00 C
3399 2424 N
0 216 V
218 0 V
0 -216 V
-218 0 V
Z stroke
1.000 UL
LTb
0.75 0.00 1.00 C
1.000 3399 2640 218 215 BoxColFill
0.00 0.00 0.00 C
3399 2640 N
0 215 V
218 0 V
0 -215 V
-218 0 V
Z stroke
1.000 UL
LTb
0.50 0.38 0.75 C
1.000 3399 2855 218 216 BoxColFill
0.00 0.00 0.00 C
3399 2855 N
0 216 V
218 0 V
0 -216 V
-218 0 V
Z stroke
1.000 UL
LTb
0.58 0.00 0.83 C
1.000 3399 3071 218 216 BoxColFill
0.00 0.00 0.00 C
3399 3071 N
0 216 V
218 0 V
0 -216 V
-218 0 V
Z stroke
1.000 UL
LTb
0.50 0.25 0.50 C
1.000 3399 3287 218 216 BoxColFill
0.00 0.00 0.00 C
3399 3287 N
0 216 V
218 0 V
0 -216 V
-218 0 V
Z stroke
1.000 UL
LTb
0.56 0.31 0.25 C
1.000 3399 3503 218 216 BoxColFill
0.00 0.00 0.00 C
3399 3503 N
0 216 V
218 0 V
0 -216 V
-218 0 V
Z stroke
1.000 UL
LTb
0.00 0.00 0.00 C
1.000 3399 3719 218 216 BoxColFill
0.00 0.00 0.00 C
3399 3719 N
0 216 V
218 0 V
0 -216 V
-218 0 V
Z stroke
1.000 UL
LTb
1.00 1.00 1.00 C
1.000 4268 480 218 216 BoxColFill
0.00 0.00 0.00 C
4268 480 N
0 216 V
218 0 V
0 -216 V
-218 0 V
Z stroke
1.000 UL
LTb
1.00 1.00 0.75 C
1.000 4268 696 218 216 BoxColFill
0.00 0.00 0.00 C
4268 696 N
0 216 V
218 0 V
0 -216 V
-218 0 V
Z stroke
1.000 UL
LTb
1.00 1.00 0.50 C
1.000 4268 912 218 216 BoxColFill
0.00 0.00 0.00 C
4268 912 N
0 216 V
218 0 V
0 -216 V
-218 0 V
Z stroke
1.000 UL
LTb
1.00 1.00 0.00 C
1.000 4268 1128 218 216 BoxColFill
0.00 0.00 0.00 C
4268 1128 N
0 216 V
218 0 V
0 -216 V
-218 0 V
Z stroke
1.000 UL
LTb
0.94 0.90 0.55 C
1.000 4268 1344 218 216 BoxColFill
0.00 0.00 0.00 C
4268 1344 N
0 216 V
218 0 V
0 -216 V
-218 0 V
Z stroke
1.000 UL
LTb
1.00 0.84 0.00 C
1.000 4268 1560 218 216 BoxColFill
0.00 0.00 0.00 C
4268 1560 N
0 216 V
218 0 V
0 -216 V
-218 0 V
Z stroke
1.000 UL
LTb
1.00 0.65 0.00 C
1.000 4268 1776 218 216 BoxColFill
0.00 0.00 0.00 C
4268 1776 N
0 216 V
218 0 V
0 -216 V
-218 0 V
Z stroke
1.000 UL
LTb
0.98 0.50 0.45 C
1.000 4268 1992 218 216 BoxColFill
0.00 0.00 0.00 C
4268 1992 N
0 216 V
218 0 V
0 -216 V
-218 0 V
Z stroke
1.000 UL
LTb
0.91 0.59 0.48 C
1.000 4268 2208 218 216 BoxColFill
0.00 0.00 0.00 C
4268 2208 N
0 216 V
218 0 V
0 -216 V
-218 0 V
Z stroke
1.000 UL
LTb
0.74 0.72 0.42 C
1.000 4268 2424 218 216 BoxColFill
0.00 0.00 0.00 C
4268 2424 N
0 216 V
218 0 V
0 -216 V
-218 0 V
Z stroke
1.000 UL
LTb
1.00 0.63 0.44 C
1.000 4268 2640 218 215 BoxColFill
0.00 0.00 0.00 C
4268 2640 N
0 215 V
218 0 V
0 -215 V
-218 0 V
Z stroke
1.000 UL
LTb
1.00 0.75 0.13 C
1.000 4268 2855 218 216 BoxColFill
0.00 0.00 0.00 C
4268 2855 N
0 216 V
218 0 V
0 -216 V
-218 0 V
Z stroke
1.000 UL
LTb
0.93 0.87 0.51 C
1.000 4268 3071 218 216 BoxColFill
0.00 0.00 0.00 C
4268 3071 N
0 216 V
218 0 V
0 -216 V
-218 0 V
Z stroke
1.000 UL
LTb
0.72 0.53 0.04 C
1.000 4268 3287 218 216 BoxColFill
0.00 0.00 0.00 C
4268 3287 N
0 216 V
218 0 V
0 -216 V
-218 0 V
Z stroke
1.000 UL
LTb
0.78 0.78 0.00 C
1.000 4268 3503 218 216 BoxColFill
0.00 0.00 0.00 C
4268 3503 N
0 216 V
218 0 V
0 -216 V
-218 0 V
Z stroke
1.000 UL
LTb
0.50 0.50 0.00 C
1.000 4268 3719 218 216 BoxColFill
0.00 0.00 0.00 C
4268 3719 N
0 216 V
218 0 V
0 -216 V
-218 0 V
Z stroke
1.000 UL
LTb
0.75 0.25 0.00 C
1.000 4268 3935 218 216 BoxColFill
0.00 0.00 0.00 C
4268 3935 N
0 216 V
218 0 V
0 -216 V
-218 0 V
Z stroke
1.000 UL
LTb
0.50 0.08 0.00 C
1.000 4268 4151 218 216 BoxColFill
0.00 0.00 0.00 C
4268 4151 N
0 216 V
218 0 V
0 -216 V
-218 0 V
Z stroke
1.000 UL
LTb
0.00 0.00 0.00 C
1.000 4268 4367 218 216 BoxColFill
0.00 0.00 0.00 C
4268 4367 N
0 216 V
218 0 V
0 -216 V
-218 0 V
Z stroke
1.000 UL
LTb
1.00 1.00 1.00 C
1.000 5137 480 218 216 BoxColFill
0.00 0.00 0.00 C
5137 480 N
0 216 V
218 0 V
0 -216 V
-218 0 V
Z stroke
1.000 UL
LTb
1.00 1.00 1.00 C
1.000 5137 696 218 216 BoxColFill
0.00 0.00 0.00 C
5137 696 N
0 216 V
218 0 V
0 -216 V
-218 0 V
Z stroke
1.000 UL
LTb
0.90 0.90 0.90 C
1.000 5137 912 218 216 BoxColFill
0.00 0.00 0.00 C
5137 912 N
0 216 V
218 0 V
0 -216 V
-218 0 V
Z stroke
1.000 UL
LTb
0.83 0.83 0.83 C
1.000 5137 1128 218 216 BoxColFill
0.00 0.00 0.00 C
5137 1128 N
0 216 V
218 0 V
0 -216 V
-218 0 V
Z stroke
1.000 UL
LTb
0.80 0.80 0.80 C
1.000 5137 1344 218 216 BoxColFill
0.00 0.00 0.00 C
5137 1344 N
0 216 V
218 0 V
0 -216 V
-218 0 V
Z stroke
1.000 UL
LTb
0.75 0.75 0.75 C
1.000 5137 1560 218 216 BoxColFill
0.00 0.00 0.00 C
5137 1560 N
0 216 V
218 0 V
0 -216 V
-218 0 V
Z stroke
1.000 UL
LTb
0.70 0.70 0.70 C
1.000 5137 1776 218 216 BoxColFill
0.00 0.00 0.00 C
5137 1776 N
0 216 V
218 0 V
0 -216 V
-218 0 V
Z stroke
1.000 UL
LTb
0.63 0.71 0.80 C
1.000 5137 1992 218 216 BoxColFill
0.00 0.00 0.00 C
5137 1992 N
0 216 V
218 0 V
0 -216 V
-218 0 V
Z stroke
1.000 UL
LTb
0.63 0.63 0.63 C
1.000 5137 2208 218 216 BoxColFill
0.00 0.00 0.00 C
5137 2208 N
0 216 V
218 0 V
0 -216 V
-218 0 V
Z stroke
1.000 UL
LTb
0.60 0.60 0.60 C
1.000 5137 2424 218 216 BoxColFill
0.00 0.00 0.00 C
5137 2424 N
0 216 V
218 0 V
0 -216 V
-218 0 V
Z stroke
1.000 UL
LTb
0.50 0.50 0.50 C
1.000 5137 2640 218 215 BoxColFill
0.00 0.00 0.00 C
5137 2640 N
0 215 V
218 0 V
0 -215 V
-218 0 V
Z stroke
1.000 UL
LTb
0.40 0.40 0.40 C
1.000 5137 2855 218 216 BoxColFill
0.00 0.00 0.00 C
5137 2855 N
0 216 V
218 0 V
0 -216 V
-218 0 V
Z stroke
1.000 UL
LTb
0.30 0.30 0.30 C
1.000 5137 3071 218 216 BoxColFill
0.00 0.00 0.00 C
5137 3071 N
0 216 V
218 0 V
0 -216 V
-218 0 V
Z stroke
1.000 UL
LTb
0.20 0.20 0.20 C
1.000 5137 3287 218 216 BoxColFill
0.00 0.00 0.00 C
5137 3287 N
0 216 V
218 0 V
0 -216 V
-218 0 V
Z stroke
1.000 UL
LTb
0.10 0.10 0.10 C
1.000 5137 3503 218 216 BoxColFill
0.00 0.00 0.00 C
5137 3503 N
0 216 V
218 0 V
0 -216 V
-218 0 V
Z stroke
1.000 UL
LTb
0.00 0.00 0.00 C
1.000 5137 3719 218 216 BoxColFill
0.00 0.00 0.00 C
5137 3719 N
0 216 V
218 0 V
0 -216 V
-218 0 V
Z stroke
1.000 UL
LTb
1.00 1.00 1.00 C
1.000 6007 480 217 216 BoxColFill
0.00 0.00 0.00 C
6007 480 N
0 216 V
217 0 V
0 -216 V
-217 0 V
Z stroke
1.000 UL
LTb
0.96 0.96 0.86 C
1.000 6007 696 217 216 BoxColFill
0.00 0.00 0.00 C
6007 696 N
0 216 V
217 0 V
0 -216 V
-217 0 V
Z stroke
1.000 UL
LTb
0.80 0.75 0.69 C
1.000 6007 912 217 216 BoxColFill
0.00 0.00 0.00 C
6007 912 N
0 216 V
217 0 V
0 -216 V
-217 0 V
Z stroke
1.000 UL
LTb
0.80 0.72 0.62 C
1.000 6007 1128 217 216 BoxColFill
0.00 0.00 0.00 C
6007 1128 N
0 216 V
217 0 V
0 -216 V
-217 0 V
Z stroke
1.000 UL
LTb
0.63 0.50 0.13 C
1.000 6007 1344 217 216 BoxColFill
0.00 0.00 0.00 C
6007 1344 N
0 216 V
217 0 V
0 -216 V
-217 0 V
Z stroke
1.000 UL
LTb
1.00 0.63 0.25 C
1.000 6007 1560 217 216 BoxColFill
0.00 0.00 0.00 C
6007 1560 N
0 216 V
217 0 V
0 -216 V
-217 0 V
Z stroke
1.000 UL
LTb
1.00 0.63 0.38 C
1.000 6007 1776 217 216 BoxColFill
0.00 0.00 0.00 C
6007 1776 N
0 216 V
217 0 V
0 -216 V
-217 0 V
Z stroke
1.000 UL
LTb
1.00 0.50 0.25 C
1.000 6007 1992 217 216 BoxColFill
0.00 0.00 0.00 C
6007 1992 N
0 216 V
217 0 V
0 -216 V
-217 0 V
Z stroke
1.000 UL
LTb
0.50 0.25 0.08 C
1.000 6007 2208 217 216 BoxColFill
0.00 0.00 0.00 C
6007 2208 N
0 216 V
217 0 V
0 -216 V
-217 0 V
Z stroke
1.000 UL
LTb
0.65 0.16 0.16 C
1.000 6007 2424 217 216 BoxColFill
0.00 0.00 0.00 C
6007 2424 N
0 216 V
217 0 V
0 -216 V
-217 0 V
Z stroke
1.000 UL
LTb
0.50 0.08 0.08 C
1.000 6007 2640 217 215 BoxColFill
0.00 0.00 0.00 C
6007 2640 N
0 215 V
217 0 V
0 -215 V
-217 0 V
Z stroke
1.000 UL
LTb
0.00 0.00 0.00 C
1.000 6007 2855 217 216 BoxColFill
0.00 0.00 0.00 C
6007 2855 N
0 216 V
217 0 V
0 -216 V
-217 0 V
Z stroke
1.000 UL
LTb
0.00 1.00 0.00 C
1.000 6007 3935 217 216 BoxColFill
0.00 0.00 0.00 C
6007 3935 N
0 216 V
217 0 V
0 -216 V
-217 0 V
Z stroke
1.000 UL
LTb
0.00 0.75 0.00 C
1.000 6007 4151 217 216 BoxColFill
0.00 0.00 0.00 C
6007 4151 N
0 216 V
217 0 V
0 -216 V
-217 0 V
Z stroke
1.000 UL
LTb
0.00 0.39 0.00 C
1.000 6007 4367 217 216 BoxColFill
0.00 0.00 0.00 C
6007 4367 N
0 216 V
217 0 V
0 -216 V
-217 0 V
Z stroke
1.000 UL
LTb
0.00 1.00 1.00 C
1.000 6224 3935 217 216 BoxColFill
0.00 0.00 0.00 C
6224 3935 N
0 216 V
217 0 V
0 -216 V
-217 0 V
Z stroke
1.000 UL
LTb
0.00 0.50 1.00 C
1.000 6224 4151 217 216 BoxColFill
0.00 0.00 0.00 C
6224 4151 N
0 216 V
217 0 V
0 -216 V
-217 0 V
Z stroke
1.000 UL
LTb
0.00 0.00 0.55 C
1.000 6224 4367 217 216 BoxColFill
0.00 0.00 0.00 C
6224 4367 N
0 216 V
217 0 V
0 -216 V
-217 0 V
Z stroke
1.000 UL
LTb
1.00 0.75 0.75 C
1.000 6441 3935 217 216 BoxColFill
0.00 0.00 0.00 C
6441 3935 N
0 216 V
217 0 V
0 -216 V
-217 0 V
Z stroke
1.000 UL
LTb
1.00 0.00 0.00 C
1.000 6441 4151 217 216 BoxColFill
0.00 0.00 0.00 C
6441 4151 N
0 216 V
217 0 V
0 -216 V
-217 0 V
Z stroke
1.000 UL
LTb
0.55 0.00 0.00 C
1.000 6441 4367 217 216 BoxColFill
0.00 0.00 0.00 C
6441 4367 N
0 216 V
217 0 V
0 -216 V
-217 0 V
Z stroke
1.000 UP
LCb setrgbcolor
1020 588 M
[ [(Times-Roman) 120.0 0.0 true true 0 (white)]
] -40.0 MLshow
/Times-Roman findfont 240 scalefont setfont
LCb setrgbcolor
1020 804 M
[ [(Times-Roman) 120.0 0.0 true true 0 (honeydew)]
] -40.0 MLshow
/Times-Roman findfont 240 scalefont setfont
LCb setrgbcolor
1020 1020 M
[ [(Times-Roman) 120.0 0.0 true true 0 (seagreen)]
] -40.0 MLshow
/Times-Roman findfont 240 scalefont setfont
LCb setrgbcolor
1020 1236 M
[ [(Times-Roman) 120.0 0.0 true true 0 (greenyellow)]
] -40.0 MLshow
/Times-Roman findfont 240 scalefont setfont
LCb setrgbcolor
1020 1452 M
[ [(Times-Roman) 120.0 0.0 true true 0 (chartreuse)]
] -40.0 MLshow
/Times-Roman findfont 240 scalefont setfont
LCb setrgbcolor
1020 1668 M
[ [(Times-Roman) 120.0 0.0 true true 0 (spring-green)]
] -40.0 MLshow
/Times-Roman findfont 240 scalefont setfont
LCb setrgbcolor
1020 1884 M
[ [(Times-Roman) 120.0 0.0 true true 0 (green)]
] -40.0 MLshow
/Times-Roman findfont 240 scalefont setfont
LCb setrgbcolor
1020 2100 M
[ [(Times-Roman) 120.0 0.0 true true 0 (light-green)]
] -40.0 MLshow
/Times-Roman findfont 240 scalefont setfont
LCb setrgbcolor
1020 2316 M
[ [(Times-Roman) 120.0 0.0 true true 0 (web-green)]
] -40.0 MLshow
/Times-Roman findfont 240 scalefont setfont
LCb setrgbcolor
1020 2532 M
[ [(Times-Roman) 120.0 0.0 true true 0 (sea-green)]
] -40.0 MLshow
/Times-Roman findfont 240 scalefont setfont
LCb setrgbcolor
1020 2747 M
[ [(Times-Roman) 120.0 0.0 true true 0 (forest-green)]
] -40.0 MLshow
/Times-Roman findfont 240 scalefont setfont
LCb setrgbcolor
1020 2963 M
[ [(Times-Roman) 120.0 0.0 true true 0 (dark-chartreuse)]
] -40.0 MLshow
/Times-Roman findfont 240 scalefont setfont
LCb setrgbcolor
1020 3179 M
[ [(Times-Roman) 120.0 0.0 true true 0 (dark-spring-green)]
] -40.0 MLshow
/Times-Roman findfont 240 scalefont setfont
LCb setrgbcolor
1020 3395 M
[ [(Times-Roman) 120.0 0.0 true true 0 (dark-olivegreen)]
] -40.0 MLshow
/Times-Roman findfont 240 scalefont setfont
LCb setrgbcolor
1020 3611 M
[ [(Times-Roman) 120.0 0.0 true true 0 (dark-green)]
] -40.0 MLshow
/Times-Roman findfont 240 scalefont setfont
LCb setrgbcolor
1020 3827 M
[ [(Times-Roman) 120.0 0.0 true true 0 (black)]
] -40.0 MLshow
/Times-Roman findfont 240 scalefont setfont
LCb setrgbcolor
1889 588 M
[ [(Times-Roman) 120.0 0.0 true true 0 (white)]
] -40.0 MLshow
/Times-Roman findfont 240 scalefont setfont
LCb setrgbcolor
1889 804 M
[ [(Times-Roman) 120.0 0.0 true true 0 (light-cyan)]
] -40.0 MLshow
/Times-Roman findfont 240 scalefont setfont
LCb setrgbcolor
1889 1020 M
[ [(Times-Roman) 120.0 0.0 true true 0 (cyan)]
] -40.0 MLshow
/Times-Roman findfont 240 scalefont setfont
LCb setrgbcolor
1889 1236 M
[ [(Times-Roman) 120.0 0.0 true true 0 (dark-cyan)]
] -40.0 MLshow
/Times-Roman findfont 240 scalefont setfont
LCb setrgbcolor
1889 1452 M
[ [(Times-Roman) 120.0 0.0 true true 0 (light-turquoise)]
] -40.0 MLshow
/Times-Roman findfont 240 scalefont setfont
LCb setrgbcolor
1889 1668 M
[ [(Times-Roman) 120.0 0.0 true true 0 (turquoise)]
] -40.0 MLshow
/Times-Roman findfont 240 scalefont setfont
LCb setrgbcolor
1889 1884 M
[ [(Times-Roman) 120.0 0.0 true true 0 (dark-turquoise)]
] -40.0 MLshow
/Times-Roman findfont 240 scalefont setfont
LCb setrgbcolor
1889 2100 M
[ [(Times-Roman) 120.0 0.0 true true 0 (light-blue)]
] -40.0 MLshow
/Times-Roman findfont 240 scalefont setfont
LCb setrgbcolor
1889 2316 M
[ [(Times-Roman) 120.0 0.0 true true 0 (skyblue)]
] -40.0 MLshow
/Times-Roman findfont 240 scalefont setfont
LCb setrgbcolor
1889 2532 M
[ [(Times-Roman) 120.0 0.0 true true 0 (slateblue1)]
] -40.0 MLshow
/Times-Roman findfont 240 scalefont setfont
LCb setrgbcolor
1889 2747 M
[ [(Times-Roman) 120.0 0.0 true true 0 (web-blue)]
] -40.0 MLshow
/Times-Roman findfont 240 scalefont setfont
LCb setrgbcolor
1889 2963 M
[ [(Times-Roman) 120.0 0.0 true true 0 (royalblue)]
] -40.0 MLshow
/Times-Roman findfont 240 scalefont setfont
LCb setrgbcolor
1889 3179 M
[ [(Times-Roman) 120.0 0.0 true true 0 (steelblue)]
] -40.0 MLshow
/Times-Roman findfont 240 scalefont setfont
LCb setrgbcolor
1889 3395 M
[ [(Times-Roman) 120.0 0.0 true true 0 (blue)]
] -40.0 MLshow
/Times-Roman findfont 240 scalefont setfont
LCb setrgbcolor
1889 3611 M
[ [(Times-Roman) 120.0 0.0 true true 0 (medium-blue)]
] -40.0 MLshow
/Times-Roman findfont 240 scalefont setfont
LCb setrgbcolor
1889 3827 M
[ [(Times-Roman) 120.0 0.0 true true 0 (navy)]
] -40.0 MLshow
/Times-Roman findfont 240 scalefont setfont
LCb setrgbcolor
1889 4043 M
[ [(Times-Roman) 120.0 0.0 true true 0 (dark-blue)]
] -40.0 MLshow
/Times-Roman findfont 240 scalefont setfont
LCb setrgbcolor
1889 4259 M
[ [(Times-Roman) 120.0 0.0 true true 0 (midnight-blue)]
] -40.0 MLshow
/Times-Roman findfont 240 scalefont setfont
LCb setrgbcolor
1889 4475 M
[ [(Times-Roman) 120.0 0.0 true true 0 (black)]
] -40.0 MLshow
/Times-Roman findfont 240 scalefont setfont
LCb setrgbcolor
2758 588 M
[ [(Times-Roman) 120.0 0.0 true true 0 (white)]
] -40.0 MLshow
/Times-Roman findfont 240 scalefont setfont
LCb setrgbcolor
2758 804 M
[ [(Times-Roman) 120.0 0.0 true true 0 (yellow)]
] -40.0 MLshow
/Times-Roman findfont 240 scalefont setfont
LCb setrgbcolor
2758 1020 M
[ [(Times-Roman) 120.0 0.0 true true 0 (dark-yellow)]
] -40.0 MLshow
/Times-Roman findfont 240 scalefont setfont
LCb setrgbcolor
2758 1236 M
[ [(Times-Roman) 120.0 0.0 true true 0 (yellow4)]
] -40.0 MLshow
/Times-Roman findfont 240 scalefont setfont
LCb setrgbcolor
2758 1452 M
[ [(Times-Roman) 120.0 0.0 true true 0 (coral)]
] -40.0 MLshow
/Times-Roman findfont 240 scalefont setfont
LCb setrgbcolor
2758 1668 M
[ [(Times-Roman) 120.0 0.0 true true 0 (light-coral)]
] -40.0 MLshow
/Times-Roman findfont 240 scalefont setfont
LCb setrgbcolor
2758 1884 M
[ [(Times-Roman) 120.0 0.0 true true 0 (orange)]
] -40.0 MLshow
/Times-Roman findfont 240 scalefont setfont
LCb setrgbcolor
2758 2100 M
[ [(Times-Roman) 120.0 0.0 true true 0 (sandybrown)]
] -40.0 MLshow
/Times-Roman findfont 240 scalefont setfont
LCb setrgbcolor
2758 2316 M
[ [(Times-Roman) 120.0 0.0 true true 0 (orange-red)]
] -40.0 MLshow
/Times-Roman findfont 240 scalefont setfont
LCb setrgbcolor
2758 2532 M
[ [(Times-Roman) 120.0 0.0 true true 0 (red)]
] -40.0 MLshow
/Times-Roman findfont 240 scalefont setfont
LCb setrgbcolor
2758 2747 M
[ [(Times-Roman) 120.0 0.0 true true 0 (light-red)]
] -40.0 MLshow
/Times-Roman findfont 240 scalefont setfont
LCb setrgbcolor
2758 2963 M
[ [(Times-Roman) 120.0 0.0 true true 0 (dark-orange)]
] -40.0 MLshow
/Times-Roman findfont 240 scalefont setfont
LCb setrgbcolor
2758 3179 M
[ [(Times-Roman) 120.0 0.0 true true 0 (brown)]
] -40.0 MLshow
/Times-Roman findfont 240 scalefont setfont
LCb setrgbcolor
2758 3395 M
[ [(Times-Roman) 120.0 0.0 true true 0 (dark-red)]
] -40.0 MLshow
/Times-Roman findfont 240 scalefont setfont
LCb setrgbcolor
2758 3611 M
[ [(Times-Roman) 120.0 0.0 true true 0 (orangered4)]
] -40.0 MLshow
/Times-Roman findfont 240 scalefont setfont
LCb setrgbcolor
2758 3827 M
[ [(Times-Roman) 120.0 0.0 true true 0 (brown4)]
] -40.0 MLshow
/Times-Roman findfont 240 scalefont setfont
LCb setrgbcolor
2758 4043 M
[ [(Times-Roman) 120.0 0.0 true true 0 (black)]
] -40.0 MLshow
/Times-Roman findfont 240 scalefont setfont
LCb setrgbcolor
3627 588 M
[ [(Times-Roman) 120.0 0.0 true true 0 (white)]
] -40.0 MLshow
/Times-Roman findfont 240 scalefont setfont
LCb setrgbcolor
3627 804 M
[ [(Times-Roman) 120.0 0.0 true true 0 (light-pink)]
] -40.0 MLshow
/Times-Roman findfont 240 scalefont setfont
LCb setrgbcolor
3627 1020 M
[ [(Times-Roman) 120.0 0.0 true true 0 (pink)]
] -40.0 MLshow
/Times-Roman findfont 240 scalefont setfont
LCb setrgbcolor
3627 1236 M
[ [(Times-Roman) 120.0 0.0 true true 0 (plum)]
] -40.0 MLshow
/Times-Roman findfont 240 scalefont setfont
LCb setrgbcolor
3627 1452 M
[ [(Times-Roman) 120.0 0.0 true true 0 (orchid)]
] -40.0 MLshow
/Times-Roman findfont 240 scalefont setfont
LCb setrgbcolor
3627 1668 M
[ [(Times-Roman) 120.0 0.0 true true 0 (violet)]
] -40.0 MLshow
/Times-Roman findfont 240 scalefont setfont
LCb setrgbcolor
3627 1884 M
[ [(Times-Roman) 120.0 0.0 true true 0 (light-magenta)]
] -40.0 MLshow
/Times-Roman findfont 240 scalefont setfont
LCb setrgbcolor
3627 2100 M
[ [(Times-Roman) 120.0 0.0 true true 0 (magenta)]
] -40.0 MLshow
/Times-Roman findfont 240 scalefont setfont
LCb setrgbcolor
3627 2316 M
[ [(Times-Roman) 120.0 0.0 true true 0 (dark-pink)]
] -40.0 MLshow
/Times-Roman findfont 240 scalefont setfont
LCb setrgbcolor
3627 2532 M
[ [(Times-Roman) 120.0 0.0 true true 0 (purple)]
] -40.0 MLshow
/Times-Roman findfont 240 scalefont setfont
LCb setrgbcolor
3627 2747 M
[ [(Times-Roman) 120.0 0.0 true true 0 (dark-magenta)]
] -40.0 MLshow
/Times-Roman findfont 240 scalefont setfont
LCb setrgbcolor
3627 2963 M
[ [(Times-Roman) 120.0 0.0 true true 0 (mediumpurple3)]
] -40.0 MLshow
/Times-Roman findfont 240 scalefont setfont
LCb setrgbcolor
3627 3179 M
[ [(Times-Roman) 120.0 0.0 true true 0 (dark-violet)]
] -40.0 MLshow
/Times-Roman findfont 240 scalefont setfont
LCb setrgbcolor
3627 3395 M
[ [(Times-Roman) 120.0 0.0 true true 0 (orchid4)]
] -40.0 MLshow
/Times-Roman findfont 240 scalefont setfont
LCb setrgbcolor
3627 3611 M
[ [(Times-Roman) 120.0 0.0 true true 0 (dark-plum)]
] -40.0 MLshow
/Times-Roman findfont 240 scalefont setfont
LCb setrgbcolor
3627 3827 M
[ [(Times-Roman) 120.0 0.0 true true 0 (black)]
] -40.0 MLshow
/Times-Roman findfont 240 scalefont setfont
LCb setrgbcolor
4497 588 M
[ [(Times-Roman) 120.0 0.0 true true 0 (white)]
] -40.0 MLshow
/Times-Roman findfont 240 scalefont setfont
LCb setrgbcolor
4497 804 M
[ [(Times-Roman) 120.0 0.0 true true 0 (lemonchiffon)]
] -40.0 MLshow
/Times-Roman findfont 240 scalefont setfont
LCb setrgbcolor
4497 1020 M
[ [(Times-Roman) 120.0 0.0 true true 0 (khaki1)]
] -40.0 MLshow
/Times-Roman findfont 240 scalefont setfont
LCb setrgbcolor
4497 1236 M
[ [(Times-Roman) 120.0 0.0 true true 0 (yellow)]
] -40.0 MLshow
/Times-Roman findfont 240 scalefont setfont
LCb setrgbcolor
4497 1452 M
[ [(Times-Roman) 120.0 0.0 true true 0 (khaki)]
] -40.0 MLshow
/Times-Roman findfont 240 scalefont setfont
LCb setrgbcolor
4497 1668 M
[ [(Times-Roman) 120.0 0.0 true true 0 (gold)]
] -40.0 MLshow
/Times-Roman findfont 240 scalefont setfont
LCb setrgbcolor
4497 1884 M
[ [(Times-Roman) 120.0 0.0 true true 0 (orange)]
] -40.0 MLshow
/Times-Roman findfont 240 scalefont setfont
LCb setrgbcolor
4497 2100 M
[ [(Times-Roman) 120.0 0.0 true true 0 (salmon)]
] -40.0 MLshow
/Times-Roman findfont 240 scalefont setfont
LCb setrgbcolor
4497 2316 M
[ [(Times-Roman) 120.0 0.0 true true 0 (dark-salmon)]
] -40.0 MLshow
/Times-Roman findfont 240 scalefont setfont
LCb setrgbcolor
4497 2532 M
[ [(Times-Roman) 120.0 0.0 true true 0 (dark-khaki)]
] -40.0 MLshow
/Times-Roman findfont 240 scalefont setfont
LCb setrgbcolor
4497 2747 M
[ [(Times-Roman) 120.0 0.0 true true 0 (light-salmon)]
] -40.0 MLshow
/Times-Roman findfont 240 scalefont setfont
LCb setrgbcolor
4497 2963 M
[ [(Times-Roman) 120.0 0.0 true true 0 (goldenrod)]
] -40.0 MLshow
/Times-Roman findfont 240 scalefont setfont
LCb setrgbcolor
4497 3179 M
[ [(Times-Roman) 120.0 0.0 true true 0 (light-goldenrod)]
] -40.0 MLshow
/Times-Roman findfont 240 scalefont setfont
LCb setrgbcolor
4497 3395 M
[ [(Times-Roman) 120.0 0.0 true true 0 (dark-goldenrod)]
] -40.0 MLshow
/Times-Roman findfont 240 scalefont setfont
LCb setrgbcolor
4497 3611 M
[ [(Times-Roman) 120.0 0.0 true true 0 (dark-yellow)]
] -40.0 MLshow
/Times-Roman findfont 240 scalefont setfont
LCb setrgbcolor
4497 3827 M
[ [(Times-Roman) 120.0 0.0 true true 0 (yellow4)]
] -40.0 MLshow
/Times-Roman findfont 240 scalefont setfont
LCb setrgbcolor
4497 4043 M
[ [(Times-Roman) 120.0 0.0 true true 0 (dark-orange)]
] -40.0 MLshow
/Times-Roman findfont 240 scalefont setfont
LCb setrgbcolor
4497 4259 M
[ [(Times-Roman) 120.0 0.0 true true 0 (orangered4)]
] -40.0 MLshow
/Times-Roman findfont 240 scalefont setfont
LCb setrgbcolor
4497 4475 M
[ [(Times-Roman) 120.0 0.0 true true 0 (black)]
] -40.0 MLshow
/Times-Roman findfont 240 scalefont setfont
LCb setrgbcolor
5366 588 M
[ [(Times-Roman) 120.0 0.0 true true 0 (white)]
] -40.0 MLshow
/Times-Roman findfont 240 scalefont setfont
LCb setrgbcolor
5366 804 M
[ [(Times-Roman) 120.0 0.0 true true 0 (grey100)]
] -40.0 MLshow
/Times-Roman findfont 240 scalefont setfont
LCb setrgbcolor
5366 1020 M
[ [(Times-Roman) 120.0 0.0 true true 0 (grey90)]
] -40.0 MLshow
/Times-Roman findfont 240 scalefont setfont
LCb setrgbcolor
5366 1236 M
[ [(Times-Roman) 120.0 0.0 true true 0 (light-grey)]
] -40.0 MLshow
/Times-Roman findfont 240 scalefont setfont
LCb setrgbcolor
5366 1452 M
[ [(Times-Roman) 120.0 0.0 true true 0 (grey80)]
] -40.0 MLshow
/Times-Roman findfont 240 scalefont setfont
LCb setrgbcolor
5366 1668 M
[ [(Times-Roman) 120.0 0.0 true true 0 (grey)]
] -40.0 MLshow
/Times-Roman findfont 240 scalefont setfont
LCb setrgbcolor
5366 1884 M
[ [(Times-Roman) 120.0 0.0 true true 0 (grey70)]
] -40.0 MLshow
/Times-Roman findfont 240 scalefont setfont
LCb setrgbcolor
5366 2100 M
[ [(Times-Roman) 120.0 0.0 true true 0 (slategrey)]
] -40.0 MLshow
/Times-Roman findfont 240 scalefont setfont
LCb setrgbcolor
5366 2316 M
[ [(Times-Roman) 120.0 0.0 true true 0 (dark-grey)]
] -40.0 MLshow
/Times-Roman findfont 240 scalefont setfont
LCb setrgbcolor
5366 2532 M
[ [(Times-Roman) 120.0 0.0 true true 0 (grey60)]
] -40.0 MLshow
/Times-Roman findfont 240 scalefont setfont
LCb setrgbcolor
5366 2747 M
[ [(Times-Roman) 120.0 0.0 true true 0 (grey50)]
] -40.0 MLshow
/Times-Roman findfont 240 scalefont setfont
LCb setrgbcolor
5366 2963 M
[ [(Times-Roman) 120.0 0.0 true true 0 (grey40)]
] -40.0 MLshow
/Times-Roman findfont 240 scalefont setfont
LCb setrgbcolor
5366 3179 M
[ [(Times-Roman) 120.0 0.0 true true 0 (grey30)]
] -40.0 MLshow
/Times-Roman findfont 240 scalefont setfont
LCb setrgbcolor
5366 3395 M
[ [(Times-Roman) 120.0 0.0 true true 0 (grey20)]
] -40.0 MLshow
/Times-Roman findfont 240 scalefont setfont
LCb setrgbcolor
5366 3611 M
[ [(Times-Roman) 120.0 0.0 true true 0 (grey10)]
] -40.0 MLshow
/Times-Roman findfont 240 scalefont setfont
LCb setrgbcolor
5366 3827 M
[ [(Times-Roman) 120.0 0.0 true true 0 (black)]
] -40.0 MLshow
/Times-Roman findfont 240 scalefont setfont
LCb setrgbcolor
6235 588 M
[ [(Times-Roman) 120.0 0.0 true true 0 (white)]
] -40.0 MLshow
/Times-Roman findfont 240 scalefont setfont
LCb setrgbcolor
6235 804 M
[ [(Times-Roman) 120.0 0.0 true true 0 (beige)]
] -40.0 MLshow
/Times-Roman findfont 240 scalefont setfont
LCb setrgbcolor
6235 1020 M
[ [(Times-Roman) 120.0 0.0 true true 0 (antiquewhite)]
] -40.0 MLshow
/Times-Roman findfont 240 scalefont setfont
LCb setrgbcolor
6235 1236 M
[ [(Times-Roman) 120.0 0.0 true true 0 (bisque)]
] -40.0 MLshow
/Times-Roman findfont 240 scalefont setfont
LCb setrgbcolor
6235 1452 M
[ [(Times-Roman) 120.0 0.0 true true 0 (olive)]
] -40.0 MLshow
/Times-Roman findfont 240 scalefont setfont
LCb setrgbcolor
6235 1668 M
[ [(Times-Roman) 120.0 0.0 true true 0 (tan1)]
] -40.0 MLshow
/Times-Roman findfont 240 scalefont setfont
LCb setrgbcolor
6235 1884 M
[ [(Times-Roman) 120.0 0.0 true true 0 (sandybrown)]
] -40.0 MLshow
/Times-Roman findfont 240 scalefont setfont
LCb setrgbcolor
6235 2100 M
[ [(Times-Roman) 120.0 0.0 true true 0 (sienna1)]
] -40.0 MLshow
/Times-Roman findfont 240 scalefont setfont
LCb setrgbcolor
6235 2316 M
[ [(Times-Roman) 120.0 0.0 true true 0 (sienna4)]
] -40.0 MLshow
/Times-Roman findfont 240 scalefont setfont
LCb setrgbcolor
6235 2532 M
[ [(Times-Roman) 120.0 0.0 true true 0 (brown)]
] -40.0 MLshow
/Times-Roman findfont 240 scalefont setfont
LCb setrgbcolor
6235 2747 M
[ [(Times-Roman) 120.0 0.0 true true 0 (brown4)]
] -40.0 MLshow
/Times-Roman findfont 240 scalefont setfont
LCb setrgbcolor
6235 2963 M
[ [(Times-Roman) 120.0 0.0 true true 0 (black)]
] -40.0 MLshow
/Times-Roman findfont 240 scalefont setfont
1.000 UL
LTb
LCb setrgbcolor
% Begin plot #1
1.000 UP
1.000 UL
LTb
1.00 1.00 1.00 C
792 480 Pls
% End plot #1
2.000 UL
LTb
LCb setrgbcolor
1.000 UL
LTB
LCb setrgbcolor
792 4799 N
792 480 L
5975 0 V
0 4319 V
-5975 0 V
Z stroke
1.000 UP
1.000 UL
LTb
LCb setrgbcolor
stroke
grestore
end
showpage
%%Trailer
%%DocumentFonts: Times-Roman
